<?xml version="1.0" encoding="UTF-8"?>
<svg xmlns="http://www.w3.org/2000/svg" xmlns:xlink="http://www.w3.org/1999/xlink" width="504pt" height="504pt" viewBox="0 0 504 504" version="1.1">
<defs>
<g>
<symbol overflow="visible" id="glyph0-0">
<path style="stroke:none;" d=""/>
</symbol>
<symbol overflow="visible" id="glyph0-1">
<path style="stroke:none;" d="M 6.6875 0 L 6.6875 -3.453125 C 6.6875 -4.28125 6.234375 -4.734375 5.359375 -4.734375 C 4.75 -4.734375 4.375 -4.5625 3.953125 -4.03125 C 3.671875 -4.53125 3.3125 -4.734375 2.703125 -4.734375 C 2.09375 -4.734375 1.6875 -4.515625 1.296875 -3.953125 L 1.296875 -4.609375 L 0.625 -4.609375 L 0.625 0 L 1.359375 0 L 1.359375 -2.890625 C 1.359375 -3.5625 1.84375 -4.09375 2.4375 -4.09375 C 2.984375 -4.09375 3.296875 -3.765625 3.296875 -3.171875 L 3.296875 0 L 4.015625 0 L 4.015625 -2.890625 C 4.015625 -3.5625 4.515625 -4.09375 5.109375 -4.09375 C 5.640625 -4.09375 5.953125 -3.75 5.953125 -3.171875 L 5.953125 0 Z M 6.6875 0 "/>
</symbol>
<symbol overflow="visible" id="glyph0-2">
<path style="stroke:none;" d="M 4.703125 -0.015625 L 4.703125 -0.578125 C 4.625 -0.546875 4.59375 -0.546875 4.546875 -0.546875 C 4.296875 -0.546875 4.15625 -0.6875 4.15625 -0.921875 L 4.15625 -3.484375 C 4.15625 -4.296875 3.546875 -4.734375 2.421875 -4.734375 C 1.296875 -4.734375 0.609375 -4.3125 0.578125 -3.25 L 1.3125 -3.25 C 1.375 -3.8125 1.703125 -4.0625 2.390625 -4.0625 C 3.046875 -4.0625 3.421875 -3.8125 3.421875 -3.375 L 3.421875 -3.1875 C 3.421875 -2.875 3.234375 -2.75 2.65625 -2.671875 C 1.625 -2.546875 1.453125 -2.5 1.171875 -2.390625 C 0.640625 -2.171875 0.375 -1.765625 0.375 -1.203125 C 0.375 -0.359375 0.953125 0.125 1.875 0.125 C 2.46875 0.125 3.046875 -0.109375 3.453125 -0.546875 C 3.53125 -0.1875 3.84375 0.0625 4.203125 0.0625 C 4.359375 0.0625 4.46875 0.046875 4.703125 -0.015625 Z M 3.421875 -1.59375 C 3.421875 -0.9375 2.75 -0.515625 2.046875 -0.515625 C 1.46875 -0.515625 1.140625 -0.71875 1.140625 -1.21875 C 1.140625 -1.703125 1.453125 -1.90625 2.25 -2.015625 C 3.015625 -2.125 3.171875 -2.15625 3.421875 -2.28125 Z M 3.421875 -1.59375 "/>
</symbol>
<symbol overflow="visible" id="glyph0-3">
<path style="stroke:none;" d="M 4.03125 -1.296875 C 4.03125 -1.984375 3.65625 -2.328125 2.734375 -2.546875 L 2.03125 -2.703125 C 1.4375 -2.84375 1.171875 -3.046875 1.171875 -3.375 C 1.171875 -3.796875 1.5625 -4.0625 2.15625 -4.0625 C 2.75 -4.0625 3.0625 -3.8125 3.078125 -3.328125 L 3.859375 -3.328125 C 3.84375 -4.234375 3.25 -4.734375 2.1875 -4.734375 C 1.109375 -4.734375 0.40625 -4.1875 0.40625 -3.328125 C 0.40625 -2.609375 0.78125 -2.265625 1.875 -2 L 2.5625 -1.84375 C 3.0625 -1.71875 3.265625 -1.5625 3.265625 -1.234375 C 3.265625 -0.796875 2.84375 -0.546875 2.203125 -0.546875 C 1.546875 -0.546875 1.171875 -0.703125 1.078125 -1.40625 L 0.296875 -1.40625 C 0.328125 -0.34375 0.9375 0.125 2.140625 0.125 C 3.296875 0.125 4.03125 -0.40625 4.03125 -1.296875 Z M 4.03125 -1.296875 "/>
</symbol>
<symbol overflow="visible" id="glyph0-4">
<path style="stroke:none;" d="M 2.234375 0 L 2.234375 -0.609375 C 2.140625 -0.59375 2.015625 -0.578125 1.875 -0.578125 C 1.5625 -0.578125 1.484375 -0.671875 1.484375 -1 L 1.484375 -4.015625 L 2.234375 -4.015625 L 2.234375 -4.609375 L 1.484375 -4.609375 L 1.484375 -5.875 L 0.75 -5.875 L 0.75 -4.609375 L 0.125 -4.609375 L 0.125 -4.015625 L 0.75 -4.015625 L 0.75 -0.671875 C 0.75 -0.203125 1.0625 0.0625 1.640625 0.0625 C 1.8125 0.0625 1.984375 0.046875 2.234375 0 Z M 2.234375 0 "/>
</symbol>
<symbol overflow="visible" id="glyph0-5">
<path style="stroke:none;" d="M 4.515625 -2.09375 C 4.515625 -2.765625 4.453125 -3.1875 4.328125 -3.53125 C 4.03125 -4.28125 3.328125 -4.734375 2.46875 -4.734375 C 1.171875 -4.734375 0.359375 -3.796875 0.359375 -2.28125 C 0.359375 -0.765625 1.15625 0.125 2.453125 0.125 C 3.5 0.125 4.234375 -0.46875 4.421875 -1.40625 L 3.671875 -1.40625 C 3.46875 -0.796875 3.0625 -0.546875 2.46875 -0.546875 C 1.703125 -0.546875 1.140625 -1.03125 1.125 -2.09375 Z M 3.734375 -2.75 C 3.734375 -2.75 3.734375 -2.703125 3.71875 -2.6875 L 1.140625 -2.6875 C 1.203125 -3.515625 1.71875 -4.0625 2.453125 -4.0625 C 3.171875 -4.0625 3.734375 -3.46875 3.734375 -2.75 Z M 3.734375 -2.75 "/>
</symbol>
<symbol overflow="visible" id="glyph0-6">
<path style="stroke:none;" d="M 2.828125 -3.96875 L 2.828125 -4.71875 C 2.703125 -4.734375 2.640625 -4.734375 2.546875 -4.734375 C 2.0625 -4.734375 1.703125 -4.453125 1.28125 -3.78125 L 1.28125 -4.609375 L 0.609375 -4.609375 L 0.609375 0 L 1.34375 0 L 1.34375 -2.390625 C 1.34375 -3.4375 1.6875 -3.953125 2.828125 -3.96875 Z M 2.828125 -3.96875 "/>
</symbol>
<symbol overflow="visible" id="glyph0-7">
<path style="stroke:none;" d=""/>
</symbol>
<symbol overflow="visible" id="glyph0-8">
<path style="stroke:none;" d="M 4.15625 0 L 2.5625 -2.390625 L 4.109375 -4.609375 L 3.296875 -4.609375 L 2.1875 -2.9375 L 1.078125 -4.609375 L 0.234375 -4.609375 L 1.78125 -2.34375 L 0.15625 0 L 0.984375 0 L 2.15625 -1.765625 L 3.3125 0 Z M 4.15625 0 "/>
</symbol>
<symbol overflow="visible" id="glyph0-9">
<path style="stroke:none;" d="M 4.203125 -1.578125 L 3.453125 -1.578125 C 3.328125 -0.84375 2.953125 -0.546875 2.328125 -0.546875 C 1.515625 -0.546875 1.03125 -1.171875 1.03125 -2.265625 C 1.03125 -3.40625 1.515625 -4.0625 2.3125 -4.0625 C 2.921875 -4.0625 3.3125 -3.703125 3.40625 -3.0625 L 4.140625 -3.0625 C 4.0625 -4.1875 3.359375 -4.734375 2.328125 -4.734375 C 1.078125 -4.734375 0.265625 -3.796875 0.265625 -2.265625 C 0.265625 -0.78125 1.0625 0.125 2.3125 0.125 C 3.40625 0.125 4.109375 -0.53125 4.203125 -1.578125 Z M 4.203125 -1.578125 "/>
</symbol>
<symbol overflow="visible" id="glyph0-10">
<path style="stroke:none;" d="M 4.234375 0 L 4.234375 -4.609375 L 3.515625 -4.609375 L 3.515625 -2.0625 C 3.515625 -1.125 3.015625 -0.515625 2.25 -0.515625 C 1.671875 -0.515625 1.296875 -0.859375 1.296875 -1.421875 L 1.296875 -4.609375 L 0.578125 -4.609375 L 0.578125 -1.125 C 0.578125 -0.359375 1.140625 0.125 2.046875 0.125 C 2.71875 0.125 3.15625 -0.109375 3.578125 -0.71875 L 3.578125 0 Z M 4.234375 0 "/>
</symbol>
<symbol overflow="visible" id="glyph0-11">
<path style="stroke:none;" d="M 1.34375 0 L 1.34375 -4.609375 L 0.609375 -4.609375 L 0.609375 0 Z M 1.4375 -5.296875 L 1.4375 -6.21875 L 0.53125 -6.21875 L 0.53125 -5.296875 Z M 1.4375 -5.296875 "/>
</symbol>
<symbol overflow="visible" id="glyph0-12">
<path style="stroke:none;" d="M 4.484375 -2.265625 C 4.484375 -3.859375 3.71875 -4.734375 2.390625 -4.734375 C 1.09375 -4.734375 0.3125 -3.859375 0.3125 -2.3125 C 0.3125 -0.75 1.09375 0.125 2.40625 0.125 C 3.6875 0.125 4.484375 -0.75 4.484375 -2.265625 Z M 3.71875 -2.28125 C 3.71875 -1.203125 3.203125 -0.546875 2.40625 -0.546875 C 1.578125 -0.546875 1.078125 -1.1875 1.078125 -2.3125 C 1.078125 -3.40625 1.578125 -4.0625 2.40625 -4.0625 C 3.234375 -4.0625 3.71875 -3.421875 3.71875 -2.28125 Z M 3.71875 -2.28125 "/>
</symbol>
<symbol overflow="visible" id="glyph0-13">
<path style="stroke:none;" d="M 4.28125 0 L 4.28125 -3.484375 C 4.28125 -4.25 3.71875 -4.734375 2.828125 -4.734375 C 2.140625 -4.734375 1.703125 -4.484375 1.296875 -3.828125 L 1.296875 -4.609375 L 0.609375 -4.609375 L 0.609375 0 L 1.34375 0 L 1.34375 -2.546875 C 1.34375 -3.484375 1.859375 -4.09375 2.609375 -4.09375 C 3.1875 -4.09375 3.546875 -3.75 3.546875 -3.1875 L 3.546875 0 Z M 4.28125 0 "/>
</symbol>
<symbol overflow="visible" id="glyph0-14">
<path style="stroke:none;" d="M 4.453125 -1.8125 C 4.453125 -2.5625 4.140625 -3.015625 3.390625 -3.265625 C 3.96875 -3.5 4.265625 -3.890625 4.265625 -4.515625 C 4.265625 -5.59375 3.546875 -6.234375 2.359375 -6.234375 C 1.109375 -6.234375 0.4375 -5.546875 0.40625 -4.21875 L 1.1875 -4.21875 C 1.203125 -5.140625 1.578125 -5.5625 2.375 -5.5625 C 3.0625 -5.5625 3.46875 -5.15625 3.46875 -4.5 C 3.46875 -3.828125 3.1875 -3.546875 1.9375 -3.546875 L 1.9375 -2.90625 L 2.359375 -2.90625 C 3.21875 -2.90625 3.65625 -2.5 3.65625 -1.796875 C 3.65625 -1.015625 3.171875 -0.546875 2.359375 -0.546875 C 1.515625 -0.546875 1.109375 -0.96875 1.0625 -1.875 L 0.28125 -1.875 C 0.375 -0.5 1.0625 0.125 2.34375 0.125 C 3.625 0.125 4.453125 -0.640625 4.453125 -1.8125 Z M 4.453125 -1.8125 "/>
</symbol>
<symbol overflow="visible" id="glyph0-15">
<path style="stroke:none;" d="M 4.515625 -2.0625 C 4.515625 -3.296875 3.6875 -4.109375 2.5 -4.109375 C 2.0625 -4.109375 1.703125 -4 1.34375 -3.734375 L 1.59375 -5.34375 L 4.1875 -5.34375 L 4.1875 -6.109375 L 0.96875 -6.109375 L 0.5 -2.84375 L 1.21875 -2.84375 C 1.578125 -3.265625 1.875 -3.421875 2.359375 -3.421875 C 3.1875 -3.421875 3.71875 -2.890625 3.71875 -1.96875 C 3.71875 -1.0625 3.203125 -0.546875 2.359375 -0.546875 C 1.6875 -0.546875 1.265625 -0.890625 1.078125 -1.59375 L 0.3125 -1.59375 C 0.5625 -0.359375 1.265625 0.125 2.375 0.125 C 3.640625 0.125 4.515625 -0.75 4.515625 -2.0625 Z M 4.515625 -2.0625 "/>
</symbol>
<symbol overflow="visible" id="glyph0-16">
<path style="stroke:none;" d="M 4.453125 -3 C 4.453125 -5.15625 3.78125 -6.234375 2.421875 -6.234375 C 1.078125 -6.234375 0.375 -5.140625 0.375 -3.046875 C 0.375 -0.953125 1.078125 0.125 2.421875 0.125 C 3.734375 0.125 4.453125 -0.953125 4.453125 -3 Z M 3.671875 -3.0625 C 3.671875 -1.296875 3.265625 -0.515625 2.40625 -0.515625 C 1.578125 -0.515625 1.171875 -1.34375 1.171875 -3.046875 C 1.171875 -4.75 1.578125 -5.546875 2.421875 -5.546875 C 3.25 -5.546875 3.671875 -4.734375 3.671875 -3.0625 Z M 3.671875 -3.0625 "/>
</symbol>
<symbol overflow="visible" id="glyph0-17">
<path style="stroke:none;" d="M 4.578125 -1.5 L 4.578125 -2.1875 L 3.65625 -2.1875 L 3.65625 -6.234375 L 3.078125 -6.234375 L 0.25 -2.3125 L 0.25 -1.5 L 2.875 -1.5 L 2.875 0 L 3.65625 0 L 3.65625 -1.5 Z M 2.875 -2.1875 L 0.921875 -2.1875 L 2.875 -4.921875 Z M 2.875 -2.1875 "/>
</symbol>
<symbol overflow="visible" id="glyph0-18">
<path style="stroke:none;" d="M 5.953125 -2.34375 L 5.109375 -2.34375 C 4.921875 -1.125 4.40625 -0.5625 3.328125 -0.5625 C 2.046875 -0.5625 1.234375 -1.546875 1.234375 -3.140625 C 1.234375 -4.78125 2.015625 -5.84375 3.25 -5.84375 C 4.25 -5.84375 4.78125 -5.40625 4.984375 -4.421875 L 5.828125 -4.421875 C 5.5625 -5.828125 4.765625 -6.578125 3.359375 -6.578125 C 1.40625 -6.578125 0.421875 -5 0.421875 -3.125 C 0.421875 -1.265625 1.4375 0.15625 3.3125 0.15625 C 4.875 0.15625 5.765625 -0.671875 5.953125 -2.34375 Z M 5.953125 -2.34375 "/>
</symbol>
<symbol overflow="visible" id="glyph0-19">
<path style="stroke:none;" d="M 5.421875 -4.53125 C 5.421875 -5.734375 4.71875 -6.40625 3.453125 -6.40625 L 0.796875 -6.40625 L 0.796875 0 L 1.625 0 L 1.625 -2.71875 L 3.640625 -2.71875 C 4.6875 -2.71875 5.421875 -3.46875 5.421875 -4.53125 Z M 4.578125 -4.5625 C 4.578125 -3.859375 4.109375 -3.4375 3.328125 -3.4375 L 1.625 -3.4375 L 1.625 -5.6875 L 3.328125 -5.6875 C 4.109375 -5.6875 4.578125 -5.265625 4.578125 -4.5625 Z M 4.578125 -4.5625 "/>
</symbol>
<symbol overflow="visible" id="glyph0-20">
<path style="stroke:none;" d="M 5.671875 -1.953125 L 5.671875 -6.40625 L 4.859375 -6.40625 L 4.859375 -1.953125 C 4.859375 -1.09375 4.234375 -0.5625 3.203125 -0.5625 C 2.25 -0.5625 1.5625 -1.015625 1.5625 -1.953125 L 1.5625 -6.40625 L 0.75 -6.40625 L 0.75 -1.953125 C 0.75 -0.65625 1.6875 0.15625 3.203125 0.15625 C 4.703125 0.15625 5.671875 -0.671875 5.671875 -1.953125 Z M 5.671875 -1.953125 "/>
</symbol>
<symbol overflow="visible" id="glyph0-21">
<path style="stroke:none;" d="M 3.046875 0 L 3.046875 -6.234375 L 2.546875 -6.234375 C 2.265625 -5.28125 2.09375 -5.140625 0.890625 -5 L 0.890625 -4.4375 L 2.28125 -4.4375 L 2.28125 0 Z M 3.046875 0 "/>
</symbol>
<symbol overflow="visible" id="glyph0-22">
<path style="stroke:none;" d="M 4.5 -4.40625 C 4.5 -5.46875 3.671875 -6.234375 2.5 -6.234375 C 1.21875 -6.234375 0.484375 -5.59375 0.4375 -4.078125 L 1.21875 -4.078125 C 1.28125 -5.125 1.703125 -5.5625 2.46875 -5.5625 C 3.171875 -5.5625 3.703125 -5.0625 3.703125 -4.390625 C 3.703125 -3.890625 3.40625 -3.46875 2.859375 -3.15625 L 2.046875 -2.703125 C 0.75 -1.96875 0.375 -1.375 0.296875 0 L 4.453125 0 L 4.453125 -0.765625 L 1.171875 -0.765625 C 1.25 -1.28125 1.53125 -1.59375 2.296875 -2.046875 L 3.171875 -2.53125 C 4.046875 -2.984375 4.5 -3.640625 4.5 -4.40625 Z M 4.5 -4.40625 "/>
</symbol>
<symbol overflow="visible" id="glyph0-23">
<path style="stroke:none;" d="M 5.875 -3.203125 C 5.875 -5.203125 4.875 -6.40625 3.25 -6.40625 L 0.78125 -6.40625 L 0.78125 0 L 3.25 0 C 4.875 0 5.875 -1.21875 5.875 -3.203125 Z M 5.046875 -3.203125 C 5.046875 -1.578125 4.375 -0.71875 3.109375 -0.71875 L 1.59375 -0.71875 L 1.59375 -5.6875 L 3.109375 -5.6875 C 4.375 -5.6875 5.046875 -4.84375 5.046875 -3.203125 Z M 5.046875 -3.203125 "/>
</symbol>
<symbol overflow="visible" id="glyph0-24">
<path style="stroke:none;" d="M 5.75 0 L 3.5 -6.40625 L 2.4375 -6.40625 L 0.15625 0 L 1.015625 0 L 1.703125 -1.921875 L 4.171875 -1.921875 L 4.828125 0 Z M 3.9375 -2.609375 L 1.90625 -2.609375 L 2.953125 -5.53125 Z M 3.9375 -2.609375 "/>
</symbol>
<symbol overflow="visible" id="glyph0-25">
<path style="stroke:none;" d="M 4.359375 0 L 4.359375 -6.40625 L 3.625 -6.40625 L 3.625 -4.03125 C 3.3125 -4.5 2.828125 -4.734375 2.203125 -4.734375 C 1.015625 -4.734375 0.234375 -3.8125 0.234375 -2.34375 C 0.234375 -0.796875 1 0.125 2.234375 0.125 C 2.875 0.125 3.3125 -0.109375 3.703125 -0.671875 L 3.703125 0 Z M 3.625 -2.28125 C 3.625 -1.21875 3.109375 -0.546875 2.34375 -0.546875 C 1.53125 -0.546875 1 -1.234375 1 -2.3125 C 1 -3.375 1.53125 -4.0625 2.328125 -4.0625 C 3.125 -4.0625 3.625 -3.359375 3.625 -2.28125 Z M 3.625 -2.28125 "/>
</symbol>
<symbol overflow="visible" id="glyph0-26">
<path style="stroke:none;" d="M 4.296875 -0.75 L 4.296875 -4.609375 L 3.625 -4.609375 L 3.625 -3.9375 C 3.25 -4.484375 2.8125 -4.734375 2.21875 -4.734375 C 1.046875 -4.734375 0.25 -3.75 0.25 -2.265625 C 0.25 -0.8125 1.078125 0.125 2.15625 0.125 C 2.734375 0.125 3.140625 -0.109375 3.625 -0.6875 L 3.625 -0.390625 C 3.625 0.828125 3.125 1.296875 2.265625 1.296875 C 1.6875 1.296875 1.234375 1.09375 1.15625 0.53125 L 0.40625 0.53125 C 0.484375 1.40625 1.15625 1.921875 2.25 1.921875 C 3.6875 1.921875 4.296875 1.28125 4.296875 -0.75 Z M 3.546875 -2.28125 C 3.546875 -1.171875 3.078125 -0.546875 2.3125 -0.546875 C 1.5 -0.546875 1.015625 -1.1875 1.015625 -2.3125 C 1.015625 -3.40625 1.515625 -4.0625 2.296875 -4.0625 C 3.09375 -4.0625 3.546875 -3.390625 3.546875 -2.28125 Z M 3.546875 -2.28125 "/>
</symbol>
<symbol overflow="visible" id="glyph0-27">
<path style="stroke:none;" d="M 4.59375 -2.265625 C 4.59375 -3.8125 3.84375 -4.734375 2.625 -4.734375 C 2 -4.734375 1.5 -4.453125 1.15625 -3.921875 L 1.15625 -4.609375 L 0.484375 -4.609375 L 0.484375 1.921875 L 1.21875 1.921875 L 1.21875 -0.546875 C 1.59375 -0.078125 2.03125 0.125 2.625 0.125 C 3.8125 0.125 4.59375 -0.796875 4.59375 -2.265625 Z M 3.828125 -2.28125 C 3.828125 -1.234375 3.296875 -0.546875 2.5 -0.546875 C 1.71875 -0.546875 1.21875 -1.1875 1.21875 -2.265625 C 1.21875 -3.359375 1.71875 -4.0625 2.5 -4.0625 C 3.3125 -4.0625 3.828125 -3.375 3.828125 -2.28125 Z M 3.828125 -2.28125 "/>
</symbol>
<symbol overflow="visible" id="glyph0-28">
<path style="stroke:none;" d="M 2.265625 -4.015625 L 2.265625 -4.609375 L 1.5 -4.609375 L 1.5 -5.328125 C 1.5 -5.640625 1.6875 -5.796875 2.015625 -5.796875 C 2.078125 -5.796875 2.109375 -5.796875 2.265625 -5.78125 L 2.265625 -6.390625 C 2.109375 -6.4375 2 -6.4375 1.859375 -6.4375 C 1.171875 -6.4375 0.78125 -6.046875 0.78125 -5.390625 L 0.78125 -4.609375 L 0.15625 -4.609375 L 0.15625 -4.015625 L 0.78125 -4.015625 L 0.78125 0 L 1.5 0 L 1.5 -4.015625 Z M 2.265625 -4.015625 "/>
</symbol>
<symbol overflow="visible" id="glyph0-29">
<path style="stroke:none;" d="M 4.203125 -4.609375 L 3.40625 -4.609375 L 2.140625 -1.015625 L 0.953125 -4.609375 L 0.171875 -4.609375 L 1.734375 0.015625 L 1.453125 0.75 C 1.328125 1.078125 1.171875 1.203125 0.859375 1.203125 C 0.75 1.203125 0.640625 1.171875 0.46875 1.140625 L 0.46875 1.796875 C 0.625 1.875 0.78125 1.921875 0.96875 1.921875 C 1.484375 1.921875 1.90625 1.625 2.15625 0.96875 Z M 4.203125 -4.609375 "/>
</symbol>
<symbol overflow="visible" id="glyph0-30">
<path style="stroke:none;" d="M 4.421875 0 L 2.53125 -3.015625 L 4.140625 -4.609375 L 3.1875 -4.609375 L 1.234375 -2.65625 L 1.234375 -6.40625 L 0.515625 -6.40625 L 0.515625 0 L 1.234375 0 L 1.234375 -1.796875 L 1.953125 -2.5 L 3.515625 0 Z M 4.421875 0 "/>
</symbol>
<symbol overflow="visible" id="glyph1-0">
<path style="stroke:none;" d=""/>
</symbol>
<symbol overflow="visible" id="glyph1-1">
<path style="stroke:none;" d="M 6.515625 -7.109375 L 6.515625 -8.015625 L 0.234375 -8.015625 L 0.234375 -7.109375 L 2.875 -7.109375 L 2.875 0 L 3.890625 0 L 3.890625 -7.109375 Z M 6.515625 -7.109375 "/>
</symbol>
<symbol overflow="visible" id="glyph1-2">
<path style="stroke:none;" d="M 1.6875 0 L 1.6875 -5.765625 L 0.765625 -5.765625 L 0.765625 0 Z M 1.796875 -6.640625 L 1.796875 -7.78125 L 0.65625 -7.78125 L 0.65625 -6.640625 Z M 1.796875 -6.640625 "/>
</symbol>
<symbol overflow="visible" id="glyph1-3">
<path style="stroke:none;" d="M 8.359375 0 L 8.359375 -4.328125 C 8.359375 -5.359375 7.78125 -5.921875 6.703125 -5.921875 C 5.9375 -5.921875 5.484375 -5.703125 4.9375 -5.046875 C 4.59375 -5.671875 4.140625 -5.921875 3.390625 -5.921875 C 2.625 -5.921875 2.109375 -5.640625 1.609375 -4.953125 L 1.609375 -5.765625 L 0.78125 -5.765625 L 0.78125 0 L 1.6875 0 L 1.6875 -3.625 C 1.6875 -4.453125 2.296875 -5.125 3.046875 -5.125 C 3.734375 -5.125 4.109375 -4.703125 4.109375 -3.96875 L 4.109375 0 L 5.03125 0 L 5.03125 -3.625 C 5.03125 -4.453125 5.640625 -5.125 6.390625 -5.125 C 7.0625 -5.125 7.453125 -4.703125 7.453125 -3.96875 L 7.453125 0 Z M 8.359375 0 "/>
</symbol>
<symbol overflow="visible" id="glyph1-4">
<path style="stroke:none;" d="M 5.640625 -2.625 C 5.640625 -3.453125 5.578125 -3.984375 5.40625 -4.40625 C 5.03125 -5.359375 4.15625 -5.921875 3.078125 -5.921875 C 1.46875 -5.921875 0.4375 -4.734375 0.4375 -2.84375 C 0.4375 -0.953125 1.4375 0.171875 3.0625 0.171875 C 4.375 0.171875 5.296875 -0.578125 5.515625 -1.75 L 4.59375 -1.75 C 4.34375 -0.984375 3.828125 -0.6875 3.09375 -0.6875 C 2.140625 -0.6875 1.421875 -1.296875 1.390625 -2.625 Z M 4.65625 -3.4375 C 4.65625 -3.4375 4.65625 -3.390625 4.65625 -3.359375 L 1.421875 -3.359375 C 1.5 -4.390625 2.140625 -5.078125 3.0625 -5.078125 C 3.96875 -5.078125 4.65625 -4.328125 4.65625 -3.4375 Z M 4.65625 -3.4375 "/>
</symbol>
<symbol overflow="visible" id="glyph1-5">
<path style="stroke:none;" d=""/>
</symbol>
<symbol overflow="visible" id="glyph1-6">
<path style="stroke:none;" d="M 2.75 2.328125 L 2.75 1.546875 L 1.609375 1.546875 L 1.609375 -7.234375 L 2.75 -7.234375 L 2.75 -8.015625 L 0.703125 -8.015625 L 0.703125 2.328125 Z M 2.75 2.328125 "/>
</symbol>
<symbol overflow="visible" id="glyph1-7">
<path style="stroke:none;" d="M 5.046875 -1.609375 C 5.046875 -2.46875 4.5625 -2.90625 3.421875 -3.171875 L 2.546875 -3.390625 C 1.796875 -3.5625 1.46875 -3.8125 1.46875 -4.21875 C 1.46875 -4.734375 1.953125 -5.078125 2.6875 -5.078125 C 3.4375 -5.078125 3.828125 -4.765625 3.84375 -4.15625 L 4.8125 -4.15625 C 4.8125 -5.296875 4.0625 -5.921875 2.734375 -5.921875 C 1.390625 -5.921875 0.515625 -5.234375 0.515625 -4.171875 C 0.515625 -3.265625 0.984375 -2.84375 2.34375 -2.515625 L 3.203125 -2.296875 C 3.84375 -2.140625 4.09375 -1.953125 4.09375 -1.546875 C 4.09375 -1 3.546875 -0.6875 2.75 -0.6875 C 1.921875 -0.6875 1.46875 -0.875 1.34375 -1.765625 L 0.375 -1.765625 C 0.421875 -0.421875 1.171875 0.171875 2.671875 0.171875 C 4.125 0.171875 5.046875 -0.5 5.046875 -1.609375 Z M 5.046875 -1.609375 "/>
</symbol>
<symbol overflow="visible" id="glyph1-8">
<path style="stroke:none;" d="M 2.296875 2.328125 L 2.296875 -8.015625 L 0.25 -8.015625 L 0.25 -7.234375 L 1.390625 -7.234375 L 1.390625 1.546875 L 0.25 1.546875 L 0.25 2.328125 Z M 2.296875 2.328125 "/>
</symbol>
<symbol overflow="visible" id="glyph1-9">
<path style="stroke:none;" d="M 6.828125 -2.203125 C 6.828125 -3.1875 6.21875 -3.921875 5.125 -4.21875 L 3.109375 -4.75 C 2.140625 -5 1.796875 -5.328125 1.796875 -5.9375 C 1.796875 -6.75 2.515625 -7.359375 3.59375 -7.359375 C 4.859375 -7.359375 5.59375 -6.78125 5.59375 -5.734375 L 6.5625 -5.734375 C 6.5625 -7.296875 5.46875 -8.21875 3.625 -8.21875 C 1.859375 -8.21875 0.765625 -7.25 0.765625 -5.796875 C 0.765625 -4.8125 1.28125 -4.203125 2.34375 -3.921875 L 4.328125 -3.40625 C 5.34375 -3.140625 5.8125 -2.734375 5.8125 -2.09375 C 5.8125 -1.21875 5.140625 -0.703125 3.765625 -0.703125 C 2.25 -0.703125 1.5 -1.46875 1.5 -2.609375 L 0.53125 -2.609375 C 0.53125 -0.71875 1.796875 0.203125 3.703125 0.203125 C 5.734375 0.203125 6.828125 -0.765625 6.828125 -2.203125 Z M 6.828125 -2.203125 "/>
</symbol>
<symbol overflow="visible" id="glyph1-10">
<path style="stroke:none;" d="M 2.796875 0 L 2.796875 -0.765625 C 2.671875 -0.734375 2.53125 -0.71875 2.359375 -0.71875 C 1.953125 -0.71875 1.84375 -0.84375 1.84375 -1.25 L 1.84375 -5.015625 L 2.796875 -5.015625 L 2.796875 -5.765625 L 1.84375 -5.765625 L 1.84375 -7.34375 L 0.9375 -7.34375 L 0.9375 -5.765625 L 0.15625 -5.765625 L 0.15625 -5.015625 L 0.9375 -5.015625 L 0.9375 -0.84375 C 0.9375 -0.25 1.328125 0.078125 2.046875 0.078125 C 2.265625 0.078125 2.484375 0.0625 2.796875 0 Z M 2.796875 0 "/>
</symbol>
<symbol overflow="visible" id="glyph1-11">
<path style="stroke:none;" d="M 5.890625 -0.015625 L 5.890625 -0.71875 C 5.78125 -0.6875 5.734375 -0.6875 5.6875 -0.6875 C 5.375 -0.6875 5.1875 -0.859375 5.1875 -1.140625 L 5.1875 -4.359375 C 5.1875 -5.375 4.4375 -5.921875 3.03125 -5.921875 C 1.625 -5.921875 0.765625 -5.390625 0.71875 -4.0625 L 1.640625 -4.0625 C 1.71875 -4.765625 2.140625 -5.078125 2.984375 -5.078125 C 3.8125 -5.078125 4.28125 -4.78125 4.28125 -4.21875 L 4.28125 -3.984375 C 4.28125 -3.59375 4.046875 -3.4375 3.328125 -3.34375 C 2.03125 -3.171875 1.828125 -3.140625 1.46875 -2.984375 C 0.796875 -2.71875 0.46875 -2.203125 0.46875 -1.5 C 0.46875 -0.453125 1.1875 0.171875 2.359375 0.171875 C 3.09375 0.171875 3.8125 -0.140625 4.3125 -0.6875 C 4.40625 -0.234375 4.8125 0.078125 5.265625 0.078125 C 5.4375 0.078125 5.59375 0.0625 5.890625 -0.015625 Z M 4.28125 -1.984375 C 4.28125 -1.171875 3.4375 -0.640625 2.546875 -0.640625 C 1.84375 -0.640625 1.421875 -0.890625 1.421875 -1.515625 C 1.421875 -2.125 1.828125 -2.390625 2.8125 -2.53125 C 3.765625 -2.65625 3.96875 -2.703125 4.28125 -2.84375 Z M 4.28125 -1.984375 "/>
</symbol>
<symbol overflow="visible" id="glyph2-0">
<path style="stroke:none;" d=""/>
</symbol>
<symbol overflow="visible" id="glyph2-1">
<path style="stroke:none;" d="M 0 -7.46875 L -0.25 -7.46875 C -0.515625 -7.078125 -0.796875 -7 -1.875 -6.984375 C -3.1875 -6.96875 -3.59375 -6.765625 -3.953125 -5.890625 C -4.40625 -6.796875 -4.96875 -7.15625 -5.875 -7.15625 C -7.265625 -7.15625 -8.015625 -6.296875 -8.015625 -4.71875 L -8.015625 -1.015625 L 0 -1.015625 L 0 -2.046875 L -3.453125 -2.046875 L -3.453125 -4.6875 C -3.453125 -5.59375 -3.015625 -6.015625 -2.03125 -6 L -1.3125 -6 C -0.8125 -5.984375 -0.328125 -6.078125 0 -6.21875 Z M -5.734375 -6.09375 C -4.78125 -6.09375 -4.359375 -5.609375 -4.359375 -4.515625 L -4.359375 -2.046875 L -7.109375 -2.046875 L -7.109375 -4.515625 C -7.109375 -5.671875 -6.640625 -6.09375 -5.734375 -6.09375 Z M -5.734375 -6.09375 "/>
</symbol>
<symbol overflow="visible" id="glyph2-2">
<path style="stroke:none;" d="M -2.625 -5.640625 C -3.453125 -5.640625 -3.984375 -5.578125 -4.40625 -5.40625 C -5.359375 -5.03125 -5.921875 -4.15625 -5.921875 -3.078125 C -5.921875 -1.46875 -4.734375 -0.4375 -2.84375 -0.4375 C -0.953125 -0.4375 0.171875 -1.4375 0.171875 -3.0625 C 0.171875 -4.375 -0.578125 -5.296875 -1.75 -5.515625 L -1.75 -4.59375 C -0.984375 -4.34375 -0.6875 -3.828125 -0.6875 -3.09375 C -0.6875 -2.140625 -1.296875 -1.421875 -2.625 -1.390625 Z M -3.4375 -4.65625 C -3.4375 -4.65625 -3.390625 -4.65625 -3.359375 -4.65625 L -3.359375 -1.421875 C -4.390625 -1.5 -5.078125 -2.140625 -5.078125 -3.0625 C -5.078125 -3.96875 -4.328125 -4.65625 -3.4375 -4.65625 Z M -3.4375 -4.65625 "/>
</symbol>
<symbol overflow="visible" id="glyph2-3">
<path style="stroke:none;" d="M -1.609375 -5.046875 C -2.46875 -5.046875 -2.90625 -4.5625 -3.171875 -3.421875 L -3.390625 -2.546875 C -3.5625 -1.796875 -3.8125 -1.46875 -4.21875 -1.46875 C -4.734375 -1.46875 -5.078125 -1.953125 -5.078125 -2.6875 C -5.078125 -3.4375 -4.765625 -3.828125 -4.15625 -3.84375 L -4.15625 -4.8125 C -5.296875 -4.8125 -5.921875 -4.0625 -5.921875 -2.734375 C -5.921875 -1.390625 -5.234375 -0.515625 -4.171875 -0.515625 C -3.265625 -0.515625 -2.84375 -0.984375 -2.515625 -2.34375 L -2.296875 -3.203125 C -2.140625 -3.84375 -1.953125 -4.09375 -1.546875 -4.09375 C -1 -4.09375 -0.6875 -3.546875 -0.6875 -2.75 C -0.6875 -1.921875 -0.875 -1.46875 -1.765625 -1.34375 L -1.765625 -0.375 C -0.421875 -0.421875 0.171875 -1.171875 0.171875 -2.671875 C 0.171875 -4.125 -0.5 -5.046875 -1.609375 -5.046875 Z M -1.609375 -5.046875 "/>
</symbol>
<symbol overflow="visible" id="glyph2-4">
<path style="stroke:none;" d="M -2.84375 -5.609375 C -4.828125 -5.609375 -5.921875 -4.65625 -5.921875 -2.984375 C -5.921875 -1.375 -4.8125 -0.390625 -2.875 -0.390625 C -0.953125 -0.390625 0.171875 -1.359375 0.171875 -3 C 0.171875 -4.625 -0.953125 -5.609375 -2.84375 -5.609375 Z M -2.84375 -4.65625 C -1.5 -4.65625 -0.6875 -4.015625 -0.6875 -3 C -0.6875 -1.984375 -1.484375 -1.359375 -2.875 -1.359375 C -4.265625 -1.359375 -5.078125 -1.984375 -5.078125 -3 C -5.078125 -4.03125 -4.28125 -4.65625 -2.84375 -4.65625 Z M -2.84375 -4.65625 "/>
</symbol>
<symbol overflow="visible" id="glyph2-5">
<path style="stroke:none;" d="M 0 -5.296875 L -5.765625 -5.296875 L -5.765625 -4.390625 L -2.578125 -4.390625 C -1.40625 -4.390625 -0.640625 -3.765625 -0.640625 -2.8125 C -0.640625 -2.09375 -1.078125 -1.625 -1.765625 -1.625 L -5.765625 -1.625 L -5.765625 -0.71875 L -1.40625 -0.71875 C -0.453125 -0.71875 0.171875 -1.4375 0.171875 -2.546875 C 0.171875 -3.40625 -0.125 -3.9375 -0.890625 -4.484375 L 0 -4.484375 Z M 0 -5.296875 "/>
</symbol>
<symbol overflow="visible" id="glyph2-6">
<path style="stroke:none;" d="M -4.96875 -3.53125 L -5.890625 -3.53125 C -5.921875 -3.375 -5.921875 -3.296875 -5.921875 -3.171875 C -5.921875 -2.578125 -5.578125 -2.140625 -4.71875 -1.609375 L -5.765625 -1.609375 L -5.765625 -0.765625 L 0 -0.765625 L 0 -1.6875 L -2.984375 -1.6875 C -4.296875 -1.6875 -4.9375 -2.109375 -4.96875 -3.53125 Z M -4.96875 -3.53125 "/>
</symbol>
<symbol overflow="visible" id="glyph2-7">
<path style="stroke:none;" d="M -1.984375 -5.25 L -1.984375 -4.328125 C -1.0625 -4.171875 -0.6875 -3.703125 -0.6875 -2.921875 C -0.6875 -1.90625 -1.46875 -1.296875 -2.828125 -1.296875 C -4.265625 -1.296875 -5.078125 -1.890625 -5.078125 -2.890625 C -5.078125 -3.65625 -4.625 -4.140625 -3.828125 -4.25 L -3.828125 -5.1875 C -5.234375 -5.078125 -5.921875 -4.1875 -5.921875 -2.90625 C -5.921875 -1.359375 -4.734375 -0.34375 -2.828125 -0.34375 C -0.96875 -0.34375 0.171875 -1.328125 0.171875 -2.890625 C 0.171875 -4.265625 -0.65625 -5.140625 -1.984375 -5.25 Z M -1.984375 -5.25 "/>
</symbol>
</g>
<clipPath id="clip1">
  <path d="M 55.890625 40.015625 L 422 40.015625 L 422 470 L 55.890625 470 Z M 55.890625 40.015625 "/>
</clipPath>
<clipPath id="clip2">
  <path d="M 110 40.015625 L 112 40.015625 L 112 470 L 110 470 Z M 110 40.015625 "/>
</clipPath>
<clipPath id="clip3">
  <path d="M 190 40.015625 L 191 40.015625 L 191 470 L 190 470 Z M 190 40.015625 "/>
</clipPath>
<clipPath id="clip4">
  <path d="M 269 40.015625 L 270 40.015625 L 270 470 L 269 470 Z M 269 40.015625 "/>
</clipPath>
<clipPath id="clip5">
  <path d="M 348 40.015625 L 349 40.015625 L 349 470 L 348 470 Z M 348 40.015625 "/>
</clipPath>
<clipPath id="clip6">
  <path d="M 55.890625 443 L 422 443 L 422 445 L 55.890625 445 Z M 55.890625 443 "/>
</clipPath>
<clipPath id="clip7">
  <path d="M 55.890625 401 L 422 401 L 422 403 L 55.890625 403 Z M 55.890625 401 "/>
</clipPath>
<clipPath id="clip8">
  <path d="M 55.890625 359 L 422 359 L 422 361 L 55.890625 361 Z M 55.890625 359 "/>
</clipPath>
<clipPath id="clip9">
  <path d="M 55.890625 317 L 422 317 L 422 319 L 55.890625 319 Z M 55.890625 317 "/>
</clipPath>
<clipPath id="clip10">
  <path d="M 55.890625 275 L 422 275 L 422 277 L 55.890625 277 Z M 55.890625 275 "/>
</clipPath>
<clipPath id="clip11">
  <path d="M 55.890625 232 L 422 232 L 422 235 L 55.890625 235 Z M 55.890625 232 "/>
</clipPath>
<clipPath id="clip12">
  <path d="M 55.890625 190 L 422 190 L 422 192 L 55.890625 192 Z M 55.890625 190 "/>
</clipPath>
<clipPath id="clip13">
  <path d="M 55.890625 148 L 422 148 L 422 150 L 55.890625 150 Z M 55.890625 148 "/>
</clipPath>
<clipPath id="clip14">
  <path d="M 55.890625 106 L 422 106 L 422 108 L 55.890625 108 Z M 55.890625 106 "/>
</clipPath>
<clipPath id="clip15">
  <path d="M 55.890625 64 L 422 64 L 422 66 L 55.890625 66 Z M 55.890625 64 "/>
</clipPath>
<clipPath id="clip16">
  <path d="M 71 40.015625 L 73 40.015625 L 73 470 L 71 470 Z M 71 40.015625 "/>
</clipPath>
<clipPath id="clip17">
  <path d="M 150 40.015625 L 152 40.015625 L 152 470 L 150 470 Z M 150 40.015625 "/>
</clipPath>
<clipPath id="clip18">
  <path d="M 229 40.015625 L 231 40.015625 L 231 470 L 229 470 Z M 229 40.015625 "/>
</clipPath>
<clipPath id="clip19">
  <path d="M 308 40.015625 L 310 40.015625 L 310 470 L 308 470 Z M 308 40.015625 "/>
</clipPath>
<clipPath id="clip20">
  <path d="M 387 40.015625 L 389 40.015625 L 389 470 L 387 470 Z M 387 40.015625 "/>
</clipPath>
<clipPath id="clip21">
  <path d="M 55.890625 40.015625 L 422 40.015625 L 422 470 L 55.890625 470 Z M 55.890625 40.015625 "/>
</clipPath>
<clipPath id="clip22">
  <path d="M 55.890625 22.054688 L 422 22.054688 L 422 41 L 55.890625 41 Z M 55.890625 22.054688 "/>
</clipPath>
</defs>
<g id="surface627">
<rect x="0" y="0" width="504" height="504" style="fill:rgb(100%,100%,100%);fill-opacity:1;stroke:none;"/>
<rect x="0" y="0" width="504" height="504" style="fill:rgb(100%,100%,100%);fill-opacity:1;stroke:none;"/>
<path style="fill:none;stroke-width:1.066978;stroke-linecap:round;stroke-linejoin:round;stroke:rgb(100%,100%,100%);stroke-opacity:1;stroke-miterlimit:10;" d="M 0 504 L 504 504 L 504 0 L 0 0 Z M 0 504 "/>
<g clip-path="url(#clip1)" clip-rule="nonzero">
<path style=" stroke:none;fill-rule:nonzero;fill:rgb(100%,100%,100%);fill-opacity:1;" d="M 55.890625 469.109375 L 421.007812 469.109375 L 421.007812 40.011719 L 55.890625 40.011719 Z M 55.890625 469.109375 "/>
</g>
<g clip-path="url(#clip2)" clip-rule="nonzero">
<path style="fill:none;stroke-width:0.533489;stroke-linecap:butt;stroke-linejoin:round;stroke:rgb(92.156863%,92.156863%,92.156863%);stroke-opacity:1;stroke-miterlimit:10;" d="M 111.214844 469.109375 L 111.214844 40.015625 "/>
</g>
<g clip-path="url(#clip3)" clip-rule="nonzero">
<path style="fill:none;stroke-width:0.533489;stroke-linecap:butt;stroke-linejoin:round;stroke:rgb(92.156863%,92.156863%,92.156863%);stroke-opacity:1;stroke-miterlimit:10;" d="M 190.335938 469.109375 L 190.335938 40.015625 "/>
</g>
<g clip-path="url(#clip4)" clip-rule="nonzero">
<path style="fill:none;stroke-width:0.533489;stroke-linecap:butt;stroke-linejoin:round;stroke:rgb(92.156863%,92.156863%,92.156863%);stroke-opacity:1;stroke-miterlimit:10;" d="M 269.457031 469.109375 L 269.457031 40.015625 "/>
</g>
<g clip-path="url(#clip5)" clip-rule="nonzero">
<path style="fill:none;stroke-width:0.533489;stroke-linecap:butt;stroke-linejoin:round;stroke:rgb(92.156863%,92.156863%,92.156863%);stroke-opacity:1;stroke-miterlimit:10;" d="M 348.582031 469.109375 L 348.582031 40.015625 "/>
</g>
<g clip-path="url(#clip6)" clip-rule="nonzero">
<path style="fill:none;stroke-width:1.066978;stroke-linecap:butt;stroke-linejoin:round;stroke:rgb(92.156863%,92.156863%,92.156863%);stroke-opacity:1;stroke-miterlimit:10;" d="M 55.890625 443.867188 L 421.007812 443.867188 "/>
</g>
<g clip-path="url(#clip7)" clip-rule="nonzero">
<path style="fill:none;stroke-width:1.066978;stroke-linecap:butt;stroke-linejoin:round;stroke:rgb(92.156863%,92.156863%,92.156863%);stroke-opacity:1;stroke-miterlimit:10;" d="M 55.890625 401.800781 L 421.007812 401.800781 "/>
</g>
<g clip-path="url(#clip8)" clip-rule="nonzero">
<path style="fill:none;stroke-width:1.066978;stroke-linecap:butt;stroke-linejoin:round;stroke:rgb(92.156863%,92.156863%,92.156863%);stroke-opacity:1;stroke-miterlimit:10;" d="M 55.890625 359.730469 L 421.007812 359.730469 "/>
</g>
<g clip-path="url(#clip9)" clip-rule="nonzero">
<path style="fill:none;stroke-width:1.066978;stroke-linecap:butt;stroke-linejoin:round;stroke:rgb(92.156863%,92.156863%,92.156863%);stroke-opacity:1;stroke-miterlimit:10;" d="M 55.890625 317.664062 L 421.007812 317.664062 "/>
</g>
<g clip-path="url(#clip10)" clip-rule="nonzero">
<path style="fill:none;stroke-width:1.066978;stroke-linecap:butt;stroke-linejoin:round;stroke:rgb(92.156863%,92.156863%,92.156863%);stroke-opacity:1;stroke-miterlimit:10;" d="M 55.890625 275.597656 L 421.007812 275.597656 "/>
</g>
<g clip-path="url(#clip11)" clip-rule="nonzero">
<path style="fill:none;stroke-width:1.066978;stroke-linecap:butt;stroke-linejoin:round;stroke:rgb(92.156863%,92.156863%,92.156863%);stroke-opacity:1;stroke-miterlimit:10;" d="M 55.890625 233.527344 L 421.007812 233.527344 "/>
</g>
<g clip-path="url(#clip12)" clip-rule="nonzero">
<path style="fill:none;stroke-width:1.066978;stroke-linecap:butt;stroke-linejoin:round;stroke:rgb(92.156863%,92.156863%,92.156863%);stroke-opacity:1;stroke-miterlimit:10;" d="M 55.890625 191.460938 L 421.007812 191.460938 "/>
</g>
<g clip-path="url(#clip13)" clip-rule="nonzero">
<path style="fill:none;stroke-width:1.066978;stroke-linecap:butt;stroke-linejoin:round;stroke:rgb(92.156863%,92.156863%,92.156863%);stroke-opacity:1;stroke-miterlimit:10;" d="M 55.890625 149.390625 L 421.007812 149.390625 "/>
</g>
<g clip-path="url(#clip14)" clip-rule="nonzero">
<path style="fill:none;stroke-width:1.066978;stroke-linecap:butt;stroke-linejoin:round;stroke:rgb(92.156863%,92.156863%,92.156863%);stroke-opacity:1;stroke-miterlimit:10;" d="M 55.890625 107.324219 L 421.007812 107.324219 "/>
</g>
<g clip-path="url(#clip15)" clip-rule="nonzero">
<path style="fill:none;stroke-width:1.066978;stroke-linecap:butt;stroke-linejoin:round;stroke:rgb(92.156863%,92.156863%,92.156863%);stroke-opacity:1;stroke-miterlimit:10;" d="M 55.890625 65.253906 L 421.007812 65.253906 "/>
</g>
<g clip-path="url(#clip16)" clip-rule="nonzero">
<path style="fill:none;stroke-width:1.066978;stroke-linecap:butt;stroke-linejoin:round;stroke:rgb(92.156863%,92.156863%,92.156863%);stroke-opacity:1;stroke-miterlimit:10;" d="M 71.652344 469.109375 L 71.652344 40.015625 "/>
</g>
<g clip-path="url(#clip17)" clip-rule="nonzero">
<path style="fill:none;stroke-width:1.066978;stroke-linecap:butt;stroke-linejoin:round;stroke:rgb(92.156863%,92.156863%,92.156863%);stroke-opacity:1;stroke-miterlimit:10;" d="M 150.773438 469.109375 L 150.773438 40.015625 "/>
</g>
<g clip-path="url(#clip18)" clip-rule="nonzero">
<path style="fill:none;stroke-width:1.066978;stroke-linecap:butt;stroke-linejoin:round;stroke:rgb(92.156863%,92.156863%,92.156863%);stroke-opacity:1;stroke-miterlimit:10;" d="M 229.898438 469.109375 L 229.898438 40.015625 "/>
</g>
<g clip-path="url(#clip19)" clip-rule="nonzero">
<path style="fill:none;stroke-width:1.066978;stroke-linecap:butt;stroke-linejoin:round;stroke:rgb(92.156863%,92.156863%,92.156863%);stroke-opacity:1;stroke-miterlimit:10;" d="M 309.019531 469.109375 L 309.019531 40.015625 "/>
</g>
<g clip-path="url(#clip20)" clip-rule="nonzero">
<path style="fill:none;stroke-width:1.066978;stroke-linecap:butt;stroke-linejoin:round;stroke:rgb(92.156863%,92.156863%,92.156863%);stroke-opacity:1;stroke-miterlimit:10;" d="M 388.140625 469.109375 L 388.140625 40.015625 "/>
</g>
<path style="fill:none;stroke-width:17.071654;stroke-linecap:butt;stroke-linejoin:round;stroke:rgb(78.039216%,48.627451%,100%);stroke-opacity:1;stroke-miterlimit:10;" d="M 93.234375 65.253906 L 98.417969 65.253906 "/>
<path style="fill:none;stroke-width:17.071654;stroke-linecap:butt;stroke-linejoin:round;stroke:rgb(97.254902%,46.27451%,42.745098%);stroke-opacity:1;stroke-miterlimit:10;" d="M 100.953125 65.253906 L 103.714844 65.253906 "/>
<path style="fill:none;stroke-width:17.071654;stroke-linecap:butt;stroke-linejoin:round;stroke:rgb(78.039216%,48.627451%,100%);stroke-opacity:1;stroke-miterlimit:10;" d="M 124.945312 65.253906 L 130.070312 65.253906 "/>
<path style="fill:none;stroke-width:17.071654;stroke-linecap:butt;stroke-linejoin:round;stroke:rgb(0%,74.901961%,76.862745%);stroke-opacity:1;stroke-miterlimit:10;" d="M 154.394531 65.253906 L 156.4375 65.253906 "/>
<path style="fill:none;stroke-width:17.071654;stroke-linecap:butt;stroke-linejoin:round;stroke:rgb(97.254902%,46.27451%,42.745098%);stroke-opacity:1;stroke-miterlimit:10;" d="M 156.457031 65.253906 L 159.109375 65.253906 "/>
<path style="fill:none;stroke-width:17.071654;stroke-linecap:butt;stroke-linejoin:round;stroke:rgb(97.254902%,46.27451%,42.745098%);stroke-opacity:1;stroke-miterlimit:10;" d="M 159.167969 65.253906 L 161.773438 65.253906 "/>
<path style="fill:none;stroke-width:17.071654;stroke-linecap:butt;stroke-linejoin:round;stroke:rgb(0%,74.901961%,76.862745%);stroke-opacity:1;stroke-miterlimit:10;" d="M 161.828125 65.253906 L 163.734375 65.253906 "/>
<path style="fill:none;stroke-width:17.071654;stroke-linecap:butt;stroke-linejoin:round;stroke:rgb(97.254902%,46.27451%,42.745098%);stroke-opacity:1;stroke-miterlimit:10;" d="M 163.75 65.253906 L 166.421875 65.253906 "/>
<path style="fill:none;stroke-width:17.071654;stroke-linecap:butt;stroke-linejoin:round;stroke:rgb(78.039216%,48.627451%,100%);stroke-opacity:1;stroke-miterlimit:10;" d="M 166.472656 65.253906 L 171.515625 65.253906 "/>
<path style="fill:none;stroke-width:17.071654;stroke-linecap:butt;stroke-linejoin:round;stroke:rgb(97.254902%,46.27451%,42.745098%);stroke-opacity:1;stroke-miterlimit:10;" d="M 171.722656 65.253906 L 174.210938 65.253906 "/>
<path style="fill:none;stroke-width:17.071654;stroke-linecap:butt;stroke-linejoin:round;stroke:rgb(0%,74.901961%,76.862745%);stroke-opacity:1;stroke-miterlimit:10;" d="M 174.238281 65.253906 L 176.191406 65.253906 "/>
<path style="fill:none;stroke-width:17.071654;stroke-linecap:butt;stroke-linejoin:round;stroke:rgb(78.039216%,48.627451%,100%);stroke-opacity:1;stroke-miterlimit:10;" d="M 176.210938 65.253906 L 181.558594 65.253906 "/>
<path style="fill:none;stroke-width:17.071654;stroke-linecap:butt;stroke-linejoin:round;stroke:rgb(97.254902%,46.27451%,42.745098%);stroke-opacity:1;stroke-miterlimit:10;" d="M 181.761719 65.253906 L 184.257812 65.253906 "/>
<path style="fill:none;stroke-width:17.071654;stroke-linecap:butt;stroke-linejoin:round;stroke:rgb(0%,74.901961%,76.862745%);stroke-opacity:1;stroke-miterlimit:10;" d="M 184.316406 65.253906 L 186.257812 65.253906 "/>
<path style="fill:none;stroke-width:17.071654;stroke-linecap:butt;stroke-linejoin:round;stroke:rgb(0%,74.901961%,76.862745%);stroke-opacity:1;stroke-miterlimit:10;" d="M 186.3125 65.253906 L 188.222656 65.253906 "/>
<path style="fill:none;stroke-width:17.071654;stroke-linecap:butt;stroke-linejoin:round;stroke:rgb(97.254902%,46.27451%,42.745098%);stroke-opacity:1;stroke-miterlimit:10;" d="M 188.238281 65.253906 L 190.90625 65.253906 "/>
<path style="fill:none;stroke-width:17.071654;stroke-linecap:butt;stroke-linejoin:round;stroke:rgb(97.254902%,46.27451%,42.745098%);stroke-opacity:1;stroke-miterlimit:10;" d="M 190.964844 65.253906 L 193.601562 65.253906 "/>
<path style="fill:none;stroke-width:17.071654;stroke-linecap:butt;stroke-linejoin:round;stroke:rgb(97.254902%,46.27451%,42.745098%);stroke-opacity:1;stroke-miterlimit:10;" d="M 193.660156 65.253906 L 196.292969 65.253906 "/>
<path style="fill:none;stroke-width:17.071654;stroke-linecap:butt;stroke-linejoin:round;stroke:rgb(78.039216%,48.627451%,100%);stroke-opacity:1;stroke-miterlimit:10;" d="M 196.34375 65.253906 L 201.398438 65.253906 "/>
<path style="fill:none;stroke-width:17.071654;stroke-linecap:butt;stroke-linejoin:round;stroke:rgb(97.254902%,46.27451%,42.745098%);stroke-opacity:1;stroke-miterlimit:10;" d="M 201.554688 65.253906 L 204.09375 65.253906 "/>
<path style="fill:none;stroke-width:17.071654;stroke-linecap:butt;stroke-linejoin:round;stroke:rgb(0%,74.901961%,76.862745%);stroke-opacity:1;stroke-miterlimit:10;" d="M 205.175781 65.253906 L 207.203125 65.253906 "/>
<path style="fill:none;stroke-width:17.071654;stroke-linecap:butt;stroke-linejoin:round;stroke:rgb(0%,74.901961%,76.862745%);stroke-opacity:1;stroke-miterlimit:10;" d="M 207.230469 65.253906 L 209.160156 65.253906 "/>
<path style="fill:none;stroke-width:17.071654;stroke-linecap:butt;stroke-linejoin:round;stroke:rgb(97.254902%,46.27451%,42.745098%);stroke-opacity:1;stroke-miterlimit:10;" d="M 209.175781 65.253906 L 211.851562 65.253906 "/>
<path style="fill:none;stroke-width:17.071654;stroke-linecap:butt;stroke-linejoin:round;stroke:rgb(97.254902%,46.27451%,42.745098%);stroke-opacity:1;stroke-miterlimit:10;" d="M 211.902344 65.253906 L 214.542969 65.253906 "/>
<path style="fill:none;stroke-width:17.071654;stroke-linecap:butt;stroke-linejoin:round;stroke:rgb(97.254902%,46.27451%,42.745098%);stroke-opacity:1;stroke-miterlimit:10;" d="M 214.601562 65.253906 L 217.230469 65.253906 "/>
<path style="fill:none;stroke-width:17.071654;stroke-linecap:butt;stroke-linejoin:round;stroke:rgb(97.254902%,46.27451%,42.745098%);stroke-opacity:1;stroke-miterlimit:10;" d="M 217.285156 65.253906 L 219.921875 65.253906 "/>
<path style="fill:none;stroke-width:17.071654;stroke-linecap:butt;stroke-linejoin:round;stroke:rgb(97.254902%,46.27451%,42.745098%);stroke-opacity:1;stroke-miterlimit:10;" d="M 219.972656 65.253906 L 222.628906 65.253906 "/>
<path style="fill:none;stroke-width:17.071654;stroke-linecap:butt;stroke-linejoin:round;stroke:rgb(97.254902%,46.27451%,42.745098%);stroke-opacity:1;stroke-miterlimit:10;" d="M 222.683594 65.253906 L 225.308594 65.253906 "/>
<path style="fill:none;stroke-width:17.071654;stroke-linecap:butt;stroke-linejoin:round;stroke:rgb(97.254902%,46.27451%,42.745098%);stroke-opacity:1;stroke-miterlimit:10;" d="M 225.332031 65.253906 L 227.992188 65.253906 "/>
<path style="fill:none;stroke-width:17.071654;stroke-linecap:butt;stroke-linejoin:round;stroke:rgb(97.254902%,46.27451%,42.745098%);stroke-opacity:1;stroke-miterlimit:10;" d="M 228.003906 65.253906 L 230.675781 65.253906 "/>
<path style="fill:none;stroke-width:17.071654;stroke-linecap:butt;stroke-linejoin:round;stroke:rgb(97.254902%,46.27451%,42.745098%);stroke-opacity:1;stroke-miterlimit:10;" d="M 230.691406 65.253906 L 233.367188 65.253906 "/>
<path style="fill:none;stroke-width:17.071654;stroke-linecap:butt;stroke-linejoin:round;stroke:rgb(0%,74.901961%,76.862745%);stroke-opacity:1;stroke-miterlimit:10;" d="M 233.386719 65.253906 L 235.335938 65.253906 "/>
<path style="fill:none;stroke-width:17.071654;stroke-linecap:butt;stroke-linejoin:round;stroke:rgb(97.254902%,46.27451%,42.745098%);stroke-opacity:1;stroke-miterlimit:10;" d="M 235.351562 65.253906 L 238.023438 65.253906 "/>
<path style="fill:none;stroke-width:17.071654;stroke-linecap:butt;stroke-linejoin:round;stroke:rgb(97.254902%,46.27451%,42.745098%);stroke-opacity:1;stroke-miterlimit:10;" d="M 247.265625 65.253906 L 249.976562 65.253906 "/>
<path style="fill:none;stroke-width:17.071654;stroke-linecap:butt;stroke-linejoin:round;stroke:rgb(0%,74.901961%,76.862745%);stroke-opacity:1;stroke-miterlimit:10;" d="M 249.996094 65.253906 L 251.957031 65.253906 "/>
<path style="fill:none;stroke-width:17.071654;stroke-linecap:butt;stroke-linejoin:round;stroke:rgb(0%,74.901961%,76.862745%);stroke-opacity:1;stroke-miterlimit:10;" d="M 251.972656 65.253906 L 253.921875 65.253906 "/>
<path style="fill:none;stroke-width:17.071654;stroke-linecap:butt;stroke-linejoin:round;stroke:rgb(97.254902%,46.27451%,42.745098%);stroke-opacity:1;stroke-miterlimit:10;" d="M 253.9375 65.253906 L 256.613281 65.253906 "/>
<path style="fill:none;stroke-width:17.071654;stroke-linecap:butt;stroke-linejoin:round;stroke:rgb(97.254902%,46.27451%,42.745098%);stroke-opacity:1;stroke-miterlimit:10;" d="M 257.464844 65.253906 L 260.199219 65.253906 "/>
<path style="fill:none;stroke-width:17.071654;stroke-linecap:butt;stroke-linejoin:round;stroke:rgb(97.254902%,46.27451%,42.745098%);stroke-opacity:1;stroke-miterlimit:10;" d="M 262.433594 65.253906 L 265.148438 65.253906 "/>
<path style="fill:none;stroke-width:17.071654;stroke-linecap:butt;stroke-linejoin:round;stroke:rgb(97.254902%,46.27451%,42.745098%);stroke-opacity:1;stroke-miterlimit:10;" d="M 278.660156 65.253906 L 281.394531 65.253906 "/>
<path style="fill:none;stroke-width:17.071654;stroke-linecap:butt;stroke-linejoin:round;stroke:rgb(78.039216%,48.627451%,100%);stroke-opacity:1;stroke-miterlimit:10;" d="M 283.109375 65.253906 L 288.25 65.253906 "/>
<path style="fill:none;stroke-width:17.071654;stroke-linecap:butt;stroke-linejoin:round;stroke:rgb(78.039216%,48.627451%,100%);stroke-opacity:1;stroke-miterlimit:10;" d="M 288.53125 65.253906 L 293.875 65.253906 "/>
<path style="fill:none;stroke-width:17.071654;stroke-linecap:butt;stroke-linejoin:round;stroke:rgb(0%,74.901961%,76.862745%);stroke-opacity:1;stroke-miterlimit:10;" d="M 294.734375 65.253906 L 295.863281 65.253906 "/>
<path style="fill:none;stroke-width:17.071654;stroke-linecap:butt;stroke-linejoin:round;stroke:rgb(0%,74.901961%,76.862745%);stroke-opacity:1;stroke-miterlimit:10;" d="M 295.878906 65.253906 L 297.863281 65.253906 "/>
<path style="fill:none;stroke-width:17.071654;stroke-linecap:butt;stroke-linejoin:round;stroke:rgb(97.254902%,46.27451%,42.745098%);stroke-opacity:1;stroke-miterlimit:10;" d="M 297.878906 65.253906 L 300.546875 65.253906 "/>
<path style="fill:none;stroke-width:17.071654;stroke-linecap:butt;stroke-linejoin:round;stroke:rgb(97.254902%,46.27451%,42.745098%);stroke-opacity:1;stroke-miterlimit:10;" d="M 300.566406 65.253906 L 303.234375 65.253906 "/>
<path style="fill:none;stroke-width:17.071654;stroke-linecap:butt;stroke-linejoin:round;stroke:rgb(78.039216%,48.627451%,100%);stroke-opacity:1;stroke-miterlimit:10;" d="M 321.199219 65.253906 L 326.351562 65.253906 "/>
<path style="fill:none;stroke-width:17.071654;stroke-linecap:butt;stroke-linejoin:round;stroke:rgb(0%,74.901961%,76.862745%);stroke-opacity:1;stroke-miterlimit:10;" d="M 326.734375 65.253906 L 328.773438 65.253906 "/>
<path style="fill:none;stroke-width:17.071654;stroke-linecap:butt;stroke-linejoin:round;stroke:rgb(0%,74.901961%,76.862745%);stroke-opacity:1;stroke-miterlimit:10;" d="M 333.488281 65.253906 L 335.507812 65.253906 "/>
<path style="fill:none;stroke-width:17.071654;stroke-linecap:butt;stroke-linejoin:round;stroke:rgb(0%,74.901961%,76.862745%);stroke-opacity:1;stroke-miterlimit:10;" d="M 357.421875 65.253906 L 359.449219 65.253906 "/>
<path style="fill:none;stroke-width:17.071654;stroke-linecap:butt;stroke-linejoin:round;stroke:rgb(78.039216%,48.627451%,100%);stroke-opacity:1;stroke-miterlimit:10;" d="M 92.96875 107.324219 L 98.191406 107.324219 "/>
<path style="fill:none;stroke-width:17.071654;stroke-linecap:butt;stroke-linejoin:round;stroke:rgb(0%,74.901961%,76.862745%);stroke-opacity:1;stroke-miterlimit:10;" d="M 100.355469 107.324219 L 102.433594 107.324219 "/>
<path style="fill:none;stroke-width:17.071654;stroke-linecap:butt;stroke-linejoin:round;stroke:rgb(0%,74.901961%,76.862745%);stroke-opacity:1;stroke-miterlimit:10;" d="M 112.632812 107.324219 L 114.652344 107.324219 "/>
<path style="fill:none;stroke-width:17.071654;stroke-linecap:butt;stroke-linejoin:round;stroke:rgb(97.254902%,46.27451%,42.745098%);stroke-opacity:1;stroke-miterlimit:10;" d="M 114.667969 107.324219 L 117.332031 107.324219 "/>
<path style="fill:none;stroke-width:17.071654;stroke-linecap:butt;stroke-linejoin:round;stroke:rgb(97.254902%,46.27451%,42.745098%);stroke-opacity:1;stroke-miterlimit:10;" d="M 117.347656 107.324219 L 120.015625 107.324219 "/>
<path style="fill:none;stroke-width:17.071654;stroke-linecap:butt;stroke-linejoin:round;stroke:rgb(78.039216%,48.627451%,100%);stroke-opacity:1;stroke-miterlimit:10;" d="M 125.125 107.324219 L 130.269531 107.324219 "/>
<path style="fill:none;stroke-width:17.071654;stroke-linecap:butt;stroke-linejoin:round;stroke:rgb(0%,74.901961%,76.862745%);stroke-opacity:1;stroke-miterlimit:10;" d="M 130.558594 107.324219 L 132.601562 107.324219 "/>
<path style="fill:none;stroke-width:17.071654;stroke-linecap:butt;stroke-linejoin:round;stroke:rgb(97.254902%,46.27451%,42.745098%);stroke-opacity:1;stroke-miterlimit:10;" d="M 136.582031 107.324219 L 139.328125 107.324219 "/>
<path style="fill:none;stroke-width:17.071654;stroke-linecap:butt;stroke-linejoin:round;stroke:rgb(0%,74.901961%,76.862745%);stroke-opacity:1;stroke-miterlimit:10;" d="M 147.777344 107.324219 L 149.785156 107.324219 "/>
<path style="fill:none;stroke-width:17.071654;stroke-linecap:butt;stroke-linejoin:round;stroke:rgb(0%,74.901961%,76.862745%);stroke-opacity:1;stroke-miterlimit:10;" d="M 149.804688 107.324219 L 151.792969 107.324219 "/>
<path style="fill:none;stroke-width:17.071654;stroke-linecap:butt;stroke-linejoin:round;stroke:rgb(0%,74.901961%,76.862745%);stroke-opacity:1;stroke-miterlimit:10;" d="M 151.816406 107.324219 L 153.777344 107.324219 "/>
<path style="fill:none;stroke-width:17.071654;stroke-linecap:butt;stroke-linejoin:round;stroke:rgb(97.254902%,46.27451%,42.745098%);stroke-opacity:1;stroke-miterlimit:10;" d="M 153.796875 107.324219 L 156.46875 107.324219 "/>
<path style="fill:none;stroke-width:17.071654;stroke-linecap:butt;stroke-linejoin:round;stroke:rgb(97.254902%,46.27451%,42.745098%);stroke-opacity:1;stroke-miterlimit:10;" d="M 156.550781 107.324219 L 159.179688 107.324219 "/>
<path style="fill:none;stroke-width:17.071654;stroke-linecap:butt;stroke-linejoin:round;stroke:rgb(97.254902%,46.27451%,42.745098%);stroke-opacity:1;stroke-miterlimit:10;" d="M 159.195312 107.324219 L 161.859375 107.324219 "/>
<path style="fill:none;stroke-width:17.071654;stroke-linecap:butt;stroke-linejoin:round;stroke:rgb(97.254902%,46.27451%,42.745098%);stroke-opacity:1;stroke-miterlimit:10;" d="M 161.875 107.324219 L 164.542969 107.324219 "/>
<path style="fill:none;stroke-width:17.071654;stroke-linecap:butt;stroke-linejoin:round;stroke:rgb(97.254902%,46.27451%,42.745098%);stroke-opacity:1;stroke-miterlimit:10;" d="M 164.558594 107.324219 L 167.230469 107.324219 "/>
<path style="fill:none;stroke-width:17.071654;stroke-linecap:butt;stroke-linejoin:round;stroke:rgb(97.254902%,46.27451%,42.745098%);stroke-opacity:1;stroke-miterlimit:10;" d="M 167.285156 107.324219 L 169.914062 107.324219 "/>
<path style="fill:none;stroke-width:17.071654;stroke-linecap:butt;stroke-linejoin:round;stroke:rgb(78.039216%,48.627451%,100%);stroke-opacity:1;stroke-miterlimit:10;" d="M 169.929688 107.324219 L 175.269531 107.324219 "/>
<path style="fill:none;stroke-width:17.071654;stroke-linecap:butt;stroke-linejoin:round;stroke:rgb(0%,74.901961%,76.862745%);stroke-opacity:1;stroke-miterlimit:10;" d="M 175.386719 107.324219 L 177.246094 107.324219 "/>
<path style="fill:none;stroke-width:17.071654;stroke-linecap:butt;stroke-linejoin:round;stroke:rgb(97.254902%,46.27451%,42.745098%);stroke-opacity:1;stroke-miterlimit:10;" d="M 177.273438 107.324219 L 179.9375 107.324219 "/>
<path style="fill:none;stroke-width:17.071654;stroke-linecap:butt;stroke-linejoin:round;stroke:rgb(0%,74.901961%,76.862745%);stroke-opacity:1;stroke-miterlimit:10;" d="M 181.347656 107.324219 L 183.34375 107.324219 "/>
<path style="fill:none;stroke-width:17.071654;stroke-linecap:butt;stroke-linejoin:round;stroke:rgb(97.254902%,46.27451%,42.745098%);stroke-opacity:1;stroke-miterlimit:10;" d="M 183.359375 107.324219 L 186.023438 107.324219 "/>
<path style="fill:none;stroke-width:17.071654;stroke-linecap:butt;stroke-linejoin:round;stroke:rgb(97.254902%,46.27451%,42.745098%);stroke-opacity:1;stroke-miterlimit:10;" d="M 186.089844 107.324219 L 188.722656 107.324219 "/>
<path style="fill:none;stroke-width:17.071654;stroke-linecap:butt;stroke-linejoin:round;stroke:rgb(0%,74.901961%,76.862745%);stroke-opacity:1;stroke-miterlimit:10;" d="M 189.089844 107.324219 L 191.097656 107.324219 "/>
<path style="fill:none;stroke-width:17.071654;stroke-linecap:butt;stroke-linejoin:round;stroke:rgb(97.254902%,46.27451%,42.745098%);stroke-opacity:1;stroke-miterlimit:10;" d="M 191.113281 107.324219 L 193.789062 107.324219 "/>
<path style="fill:none;stroke-width:17.071654;stroke-linecap:butt;stroke-linejoin:round;stroke:rgb(0%,74.901961%,76.862745%);stroke-opacity:1;stroke-miterlimit:10;" d="M 193.921875 107.324219 L 195.929688 107.324219 "/>
<path style="fill:none;stroke-width:17.071654;stroke-linecap:butt;stroke-linejoin:round;stroke:rgb(78.039216%,48.627451%,100%);stroke-opacity:1;stroke-miterlimit:10;" d="M 195.945312 107.324219 L 201.019531 107.324219 "/>
<path style="fill:none;stroke-width:17.071654;stroke-linecap:butt;stroke-linejoin:round;stroke:rgb(97.254902%,46.27451%,42.745098%);stroke-opacity:1;stroke-miterlimit:10;" d="M 201.105469 107.324219 L 203.726562 107.324219 "/>
<path style="fill:none;stroke-width:17.071654;stroke-linecap:butt;stroke-linejoin:round;stroke:rgb(0%,74.901961%,76.862745%);stroke-opacity:1;stroke-miterlimit:10;" d="M 203.808594 107.324219 L 205.710938 107.324219 "/>
<path style="fill:none;stroke-width:17.071654;stroke-linecap:butt;stroke-linejoin:round;stroke:rgb(97.254902%,46.27451%,42.745098%);stroke-opacity:1;stroke-miterlimit:10;" d="M 205.730469 107.324219 L 208.402344 107.324219 "/>
<path style="fill:none;stroke-width:17.071654;stroke-linecap:butt;stroke-linejoin:round;stroke:rgb(97.254902%,46.27451%,42.745098%);stroke-opacity:1;stroke-miterlimit:10;" d="M 208.464844 107.324219 L 211.082031 107.324219 "/>
<path style="fill:none;stroke-width:17.071654;stroke-linecap:butt;stroke-linejoin:round;stroke:rgb(97.254902%,46.27451%,42.745098%);stroke-opacity:1;stroke-miterlimit:10;" d="M 211.140625 107.324219 L 213.761719 107.324219 "/>
<path style="fill:none;stroke-width:17.071654;stroke-linecap:butt;stroke-linejoin:round;stroke:rgb(97.254902%,46.27451%,42.745098%);stroke-opacity:1;stroke-miterlimit:10;" d="M 213.816406 107.324219 L 216.441406 107.324219 "/>
<path style="fill:none;stroke-width:17.071654;stroke-linecap:butt;stroke-linejoin:round;stroke:rgb(97.254902%,46.27451%,42.745098%);stroke-opacity:1;stroke-miterlimit:10;" d="M 216.5 107.324219 L 219.132812 107.324219 "/>
<path style="fill:none;stroke-width:17.071654;stroke-linecap:butt;stroke-linejoin:round;stroke:rgb(97.254902%,46.27451%,42.745098%);stroke-opacity:1;stroke-miterlimit:10;" d="M 219.1875 107.324219 L 221.847656 107.324219 "/>
<path style="fill:none;stroke-width:17.071654;stroke-linecap:butt;stroke-linejoin:round;stroke:rgb(0%,74.901961%,76.862745%);stroke-opacity:1;stroke-miterlimit:10;" d="M 222.535156 107.324219 L 224.535156 107.324219 "/>
<path style="fill:none;stroke-width:17.071654;stroke-linecap:butt;stroke-linejoin:round;stroke:rgb(78.039216%,48.627451%,100%);stroke-opacity:1;stroke-miterlimit:10;" d="M 224.585938 107.324219 L 229.75 107.324219 "/>
<path style="fill:none;stroke-width:17.071654;stroke-linecap:butt;stroke-linejoin:round;stroke:rgb(78.039216%,48.627451%,100%);stroke-opacity:1;stroke-miterlimit:10;" d="M 229.898438 107.324219 L 234.992188 107.324219 "/>
<path style="fill:none;stroke-width:17.071654;stroke-linecap:butt;stroke-linejoin:round;stroke:rgb(97.254902%,46.27451%,42.745098%);stroke-opacity:1;stroke-miterlimit:10;" d="M 235.257812 107.324219 L 237.683594 107.324219 "/>
<path style="fill:none;stroke-width:17.071654;stroke-linecap:butt;stroke-linejoin:round;stroke:rgb(0%,74.901961%,76.862745%);stroke-opacity:1;stroke-miterlimit:10;" d="M 237.753906 107.324219 L 239.660156 107.324219 "/>
<path style="fill:none;stroke-width:17.071654;stroke-linecap:butt;stroke-linejoin:round;stroke:rgb(97.254902%,46.27451%,42.745098%);stroke-opacity:1;stroke-miterlimit:10;" d="M 239.675781 107.324219 L 242.339844 107.324219 "/>
<path style="fill:none;stroke-width:17.071654;stroke-linecap:butt;stroke-linejoin:round;stroke:rgb(97.254902%,46.27451%,42.745098%);stroke-opacity:1;stroke-miterlimit:10;" d="M 242.390625 107.324219 L 245.027344 107.324219 "/>
<path style="fill:none;stroke-width:17.071654;stroke-linecap:butt;stroke-linejoin:round;stroke:rgb(97.254902%,46.27451%,42.745098%);stroke-opacity:1;stroke-miterlimit:10;" d="M 245.082031 107.324219 L 247.699219 107.324219 "/>
<path style="fill:none;stroke-width:17.071654;stroke-linecap:butt;stroke-linejoin:round;stroke:rgb(97.254902%,46.27451%,42.745098%);stroke-opacity:1;stroke-miterlimit:10;" d="M 247.753906 107.324219 L 250.390625 107.324219 "/>
<path style="fill:none;stroke-width:17.071654;stroke-linecap:butt;stroke-linejoin:round;stroke:rgb(97.254902%,46.27451%,42.745098%);stroke-opacity:1;stroke-miterlimit:10;" d="M 250.40625 107.324219 L 253.09375 107.324219 "/>
<path style="fill:none;stroke-width:17.071654;stroke-linecap:butt;stroke-linejoin:round;stroke:rgb(97.254902%,46.27451%,42.745098%);stroke-opacity:1;stroke-miterlimit:10;" d="M 259.035156 107.324219 L 261.789062 107.324219 "/>
<path style="fill:none;stroke-width:17.071654;stroke-linecap:butt;stroke-linejoin:round;stroke:rgb(0%,74.901961%,76.862745%);stroke-opacity:1;stroke-miterlimit:10;" d="M 261.8125 107.324219 L 263.75 107.324219 "/>
<path style="fill:none;stroke-width:17.071654;stroke-linecap:butt;stroke-linejoin:round;stroke:rgb(97.254902%,46.27451%,42.745098%);stroke-opacity:1;stroke-miterlimit:10;" d="M 263.769531 107.324219 L 266.433594 107.324219 "/>
<path style="fill:none;stroke-width:17.071654;stroke-linecap:butt;stroke-linejoin:round;stroke:rgb(97.254902%,46.27451%,42.745098%);stroke-opacity:1;stroke-miterlimit:10;" d="M 272.25 107.324219 L 274.972656 107.324219 "/>
<path style="fill:none;stroke-width:17.071654;stroke-linecap:butt;stroke-linejoin:round;stroke:rgb(97.254902%,46.27451%,42.745098%);stroke-opacity:1;stroke-miterlimit:10;" d="M 280.082031 107.324219 L 282.804688 107.324219 "/>
<path style="fill:none;stroke-width:17.071654;stroke-linecap:butt;stroke-linejoin:round;stroke:rgb(78.039216%,48.627451%,100%);stroke-opacity:1;stroke-miterlimit:10;" d="M 283.234375 107.324219 L 288.335938 107.324219 "/>
<path style="fill:none;stroke-width:17.071654;stroke-linecap:butt;stroke-linejoin:round;stroke:rgb(97.254902%,46.27451%,42.745098%);stroke-opacity:1;stroke-miterlimit:10;" d="M 295.746094 107.324219 L 298.484375 107.324219 "/>
<path style="fill:none;stroke-width:17.071654;stroke-linecap:butt;stroke-linejoin:round;stroke:rgb(97.254902%,46.27451%,42.745098%);stroke-opacity:1;stroke-miterlimit:10;" d="M 298.507812 107.324219 L 301.167969 107.324219 "/>
<path style="fill:none;stroke-width:17.071654;stroke-linecap:butt;stroke-linejoin:round;stroke:rgb(97.254902%,46.27451%,42.745098%);stroke-opacity:1;stroke-miterlimit:10;" d="M 336.523438 107.324219 L 339.246094 107.324219 "/>
<path style="fill:none;stroke-width:17.071654;stroke-linecap:butt;stroke-linejoin:round;stroke:rgb(78.039216%,48.627451%,100%);stroke-opacity:1;stroke-miterlimit:10;" d="M 350.652344 107.324219 L 355.777344 107.324219 "/>
<path style="fill:none;stroke-width:17.071654;stroke-linecap:butt;stroke-linejoin:round;stroke:rgb(78.039216%,48.627451%,100%);stroke-opacity:1;stroke-miterlimit:10;" d="M 93.476562 149.390625 L 98.796875 149.390625 "/>
<path style="fill:none;stroke-width:17.071654;stroke-linecap:butt;stroke-linejoin:round;stroke:rgb(0%,74.901961%,76.862745%);stroke-opacity:1;stroke-miterlimit:10;" d="M 101.109375 149.390625 L 103.203125 149.390625 "/>
<path style="fill:none;stroke-width:17.071654;stroke-linecap:butt;stroke-linejoin:round;stroke:rgb(97.254902%,46.27451%,42.745098%);stroke-opacity:1;stroke-miterlimit:10;" d="M 111.292969 149.390625 L 114.097656 149.390625 "/>
<path style="fill:none;stroke-width:17.071654;stroke-linecap:butt;stroke-linejoin:round;stroke:rgb(97.254902%,46.27451%,42.745098%);stroke-opacity:1;stroke-miterlimit:10;" d="M 147.261719 149.390625 L 150.082031 149.390625 "/>
<path style="fill:none;stroke-width:17.071654;stroke-linecap:butt;stroke-linejoin:round;stroke:rgb(78.039216%,48.627451%,100%);stroke-opacity:1;stroke-miterlimit:10;" d="M 159.011719 149.390625 L 164.367188 149.390625 "/>
<path style="fill:none;stroke-width:17.071654;stroke-linecap:butt;stroke-linejoin:round;stroke:rgb(78.039216%,48.627451%,100%);stroke-opacity:1;stroke-miterlimit:10;" d="M 164.503906 149.390625 L 169.675781 149.390625 "/>
<path style="fill:none;stroke-width:17.071654;stroke-linecap:butt;stroke-linejoin:round;stroke:rgb(0%,74.901961%,76.862745%);stroke-opacity:1;stroke-miterlimit:10;" d="M 169.867188 149.390625 L 171.707031 149.390625 "/>
<path style="fill:none;stroke-width:17.071654;stroke-linecap:butt;stroke-linejoin:round;stroke:rgb(97.254902%,46.27451%,42.745098%);stroke-opacity:1;stroke-miterlimit:10;" d="M 171.726562 149.390625 L 174.46875 149.390625 "/>
<path style="fill:none;stroke-width:17.071654;stroke-linecap:butt;stroke-linejoin:round;stroke:rgb(78.039216%,48.627451%,100%);stroke-opacity:1;stroke-miterlimit:10;" d="M 174.539062 149.390625 L 179.84375 149.390625 "/>
<path style="fill:none;stroke-width:17.071654;stroke-linecap:butt;stroke-linejoin:round;stroke:rgb(78.039216%,48.627451%,100%);stroke-opacity:1;stroke-miterlimit:10;" d="M 179.957031 149.390625 L 185.117188 149.390625 "/>
<path style="fill:none;stroke-width:17.071654;stroke-linecap:butt;stroke-linejoin:round;stroke:rgb(78.039216%,48.627451%,100%);stroke-opacity:1;stroke-miterlimit:10;" d="M 185.242188 149.390625 L 190.46875 149.390625 "/>
<path style="fill:none;stroke-width:17.071654;stroke-linecap:butt;stroke-linejoin:round;stroke:rgb(97.254902%,46.27451%,42.745098%);stroke-opacity:1;stroke-miterlimit:10;" d="M 190.589844 149.390625 L 193.226562 149.390625 "/>
<path style="fill:none;stroke-width:17.071654;stroke-linecap:butt;stroke-linejoin:round;stroke:rgb(78.039216%,48.627451%,100%);stroke-opacity:1;stroke-miterlimit:10;" d="M 193.28125 149.390625 L 198.445312 149.390625 "/>
<path style="fill:none;stroke-width:17.071654;stroke-linecap:butt;stroke-linejoin:round;stroke:rgb(97.254902%,46.27451%,42.745098%);stroke-opacity:1;stroke-miterlimit:10;" d="M 198.59375 149.390625 L 201.230469 149.390625 "/>
<path style="fill:none;stroke-width:17.071654;stroke-linecap:butt;stroke-linejoin:round;stroke:rgb(97.254902%,46.27451%,42.745098%);stroke-opacity:1;stroke-miterlimit:10;" d="M 201.25 149.390625 L 203.96875 149.390625 "/>
<path style="fill:none;stroke-width:17.071654;stroke-linecap:butt;stroke-linejoin:round;stroke:rgb(97.254902%,46.27451%,42.745098%);stroke-opacity:1;stroke-miterlimit:10;" d="M 204.035156 149.390625 L 206.714844 149.390625 "/>
<path style="fill:none;stroke-width:17.071654;stroke-linecap:butt;stroke-linejoin:round;stroke:rgb(78.039216%,48.627451%,100%);stroke-opacity:1;stroke-miterlimit:10;" d="M 206.769531 149.390625 L 211.964844 149.390625 "/>
<path style="fill:none;stroke-width:17.071654;stroke-linecap:butt;stroke-linejoin:round;stroke:rgb(78.039216%,48.627451%,100%);stroke-opacity:1;stroke-miterlimit:10;" d="M 212.109375 149.390625 L 217.363281 149.390625 "/>
<path style="fill:none;stroke-width:17.071654;stroke-linecap:butt;stroke-linejoin:round;stroke:rgb(78.039216%,48.627451%,100%);stroke-opacity:1;stroke-miterlimit:10;" d="M 217.449219 149.390625 L 222.578125 149.390625 "/>
<path style="fill:none;stroke-width:17.071654;stroke-linecap:butt;stroke-linejoin:round;stroke:rgb(0%,74.901961%,76.862745%);stroke-opacity:1;stroke-miterlimit:10;" d="M 222.652344 149.390625 L 224.628906 149.390625 "/>
<path style="fill:none;stroke-width:17.071654;stroke-linecap:butt;stroke-linejoin:round;stroke:rgb(0%,74.901961%,76.862745%);stroke-opacity:1;stroke-miterlimit:10;" d="M 224.644531 149.390625 L 226.652344 149.390625 "/>
<path style="fill:none;stroke-width:17.071654;stroke-linecap:butt;stroke-linejoin:round;stroke:rgb(97.254902%,46.27451%,42.745098%);stroke-opacity:1;stroke-miterlimit:10;" d="M 226.667969 149.390625 L 229.402344 149.390625 "/>
<path style="fill:none;stroke-width:17.071654;stroke-linecap:butt;stroke-linejoin:round;stroke:rgb(97.254902%,46.27451%,42.745098%);stroke-opacity:1;stroke-miterlimit:10;" d="M 229.453125 149.390625 L 232.148438 149.390625 "/>
<path style="fill:none;stroke-width:17.071654;stroke-linecap:butt;stroke-linejoin:round;stroke:rgb(97.254902%,46.27451%,42.745098%);stroke-opacity:1;stroke-miterlimit:10;" d="M 232.199219 149.390625 L 234.886719 149.390625 "/>
<path style="fill:none;stroke-width:17.071654;stroke-linecap:butt;stroke-linejoin:round;stroke:rgb(97.254902%,46.27451%,42.745098%);stroke-opacity:1;stroke-miterlimit:10;" d="M 234.9375 149.390625 L 237.636719 149.390625 "/>
<path style="fill:none;stroke-width:17.071654;stroke-linecap:butt;stroke-linejoin:round;stroke:rgb(78.039216%,48.627451%,100%);stroke-opacity:1;stroke-miterlimit:10;" d="M 237.660156 149.390625 L 242.824219 149.390625 "/>
<path style="fill:none;stroke-width:17.071654;stroke-linecap:butt;stroke-linejoin:round;stroke:rgb(97.254902%,46.27451%,42.745098%);stroke-opacity:1;stroke-miterlimit:10;" d="M 243.210938 149.390625 L 245.585938 149.390625 "/>
<path style="fill:none;stroke-width:17.071654;stroke-linecap:butt;stroke-linejoin:round;stroke:rgb(97.254902%,46.27451%,42.745098%);stroke-opacity:1;stroke-miterlimit:10;" d="M 245.640625 149.390625 L 248.324219 149.390625 "/>
<path style="fill:none;stroke-width:17.071654;stroke-linecap:butt;stroke-linejoin:round;stroke:rgb(78.039216%,48.627451%,100%);stroke-opacity:1;stroke-miterlimit:10;" d="M 248.378906 149.390625 L 253.578125 149.390625 "/>
<path style="fill:none;stroke-width:17.071654;stroke-linecap:butt;stroke-linejoin:round;stroke:rgb(78.039216%,48.627451%,100%);stroke-opacity:1;stroke-miterlimit:10;" d="M 253.890625 149.390625 L 258.996094 149.390625 "/>
<path style="fill:none;stroke-width:17.071654;stroke-linecap:butt;stroke-linejoin:round;stroke:rgb(0%,74.901961%,76.862745%);stroke-opacity:1;stroke-miterlimit:10;" d="M 259.542969 149.390625 L 261.011719 149.390625 "/>
<path style="fill:none;stroke-width:17.071654;stroke-linecap:butt;stroke-linejoin:round;stroke:rgb(0%,74.901961%,76.862745%);stroke-opacity:1;stroke-miterlimit:10;" d="M 261.027344 149.390625 L 263.019531 149.390625 "/>
<path style="fill:none;stroke-width:17.071654;stroke-linecap:butt;stroke-linejoin:round;stroke:rgb(97.254902%,46.27451%,42.745098%);stroke-opacity:1;stroke-miterlimit:10;" d="M 263.070312 149.390625 L 265.773438 149.390625 "/>
<path style="fill:none;stroke-width:17.071654;stroke-linecap:butt;stroke-linejoin:round;stroke:rgb(97.254902%,46.27451%,42.745098%);stroke-opacity:1;stroke-miterlimit:10;" d="M 265.824219 149.390625 L 268.539062 149.390625 "/>
<path style="fill:none;stroke-width:17.071654;stroke-linecap:butt;stroke-linejoin:round;stroke:rgb(78.039216%,48.627451%,100%);stroke-opacity:1;stroke-miterlimit:10;" d="M 268.59375 149.390625 L 273.820312 149.390625 "/>
<path style="fill:none;stroke-width:17.071654;stroke-linecap:butt;stroke-linejoin:round;stroke:rgb(97.254902%,46.27451%,42.745098%);stroke-opacity:1;stroke-miterlimit:10;" d="M 274.480469 149.390625 L 276.59375 149.390625 "/>
<path style="fill:none;stroke-width:17.071654;stroke-linecap:butt;stroke-linejoin:round;stroke:rgb(0%,74.901961%,76.862745%);stroke-opacity:1;stroke-miterlimit:10;" d="M 276.613281 149.390625 L 278.601562 149.390625 "/>
<path style="fill:none;stroke-width:17.071654;stroke-linecap:butt;stroke-linejoin:round;stroke:rgb(78.039216%,48.627451%,100%);stroke-opacity:1;stroke-miterlimit:10;" d="M 282.773438 149.390625 L 287.972656 149.390625 "/>
<path style="fill:none;stroke-width:17.071654;stroke-linecap:butt;stroke-linejoin:round;stroke:rgb(97.254902%,46.27451%,42.745098%);stroke-opacity:1;stroke-miterlimit:10;" d="M 296.878906 149.390625 L 299.671875 149.390625 "/>
<path style="fill:none;stroke-width:17.071654;stroke-linecap:butt;stroke-linejoin:round;stroke:rgb(97.254902%,46.27451%,42.745098%);stroke-opacity:1;stroke-miterlimit:10;" d="M 332.335938 149.390625 L 335.285156 149.390625 "/>
<path style="fill:none;stroke-width:17.071654;stroke-linecap:butt;stroke-linejoin:round;stroke:rgb(78.039216%,48.627451%,100%);stroke-opacity:1;stroke-miterlimit:10;" d="M 350.066406 149.390625 L 355.289062 149.390625 "/>
<path style="fill:none;stroke-width:17.071654;stroke-linecap:butt;stroke-linejoin:round;stroke:rgb(97.254902%,46.27451%,42.745098%);stroke-opacity:1;stroke-miterlimit:10;" d="M 361.417969 149.390625 L 364.195312 149.390625 "/>
<path style="fill:none;stroke-width:17.071654;stroke-linecap:butt;stroke-linejoin:round;stroke:rgb(78.039216%,48.627451%,100%);stroke-opacity:1;stroke-miterlimit:10;" d="M 378.015625 149.390625 L 383.242188 149.390625 "/>
<path style="fill:none;stroke-width:17.071654;stroke-linecap:butt;stroke-linejoin:round;stroke:rgb(0%,74.901961%,76.862745%);stroke-opacity:1;stroke-miterlimit:10;" d="M 384.757812 149.390625 L 386.78125 149.390625 "/>
<path style="fill:none;stroke-width:17.071654;stroke-linecap:butt;stroke-linejoin:round;stroke:rgb(78.039216%,48.627451%,100%);stroke-opacity:1;stroke-miterlimit:10;" d="M 93.269531 191.460938 L 98.492188 191.460938 "/>
<path style="fill:none;stroke-width:17.071654;stroke-linecap:butt;stroke-linejoin:round;stroke:rgb(0%,74.901961%,76.862745%);stroke-opacity:1;stroke-miterlimit:10;" d="M 107.382812 191.460938 L 109.445312 191.460938 "/>
<path style="fill:none;stroke-width:17.071654;stroke-linecap:butt;stroke-linejoin:round;stroke:rgb(97.254902%,46.27451%,42.745098%);stroke-opacity:1;stroke-miterlimit:10;" d="M 111.46875 191.460938 L 114.183594 191.460938 "/>
<path style="fill:none;stroke-width:17.071654;stroke-linecap:butt;stroke-linejoin:round;stroke:rgb(97.254902%,46.27451%,42.745098%);stroke-opacity:1;stroke-miterlimit:10;" d="M 114.199219 191.460938 L 116.84375 191.460938 "/>
<path style="fill:none;stroke-width:17.071654;stroke-linecap:butt;stroke-linejoin:round;stroke:rgb(78.039216%,48.627451%,100%);stroke-opacity:1;stroke-miterlimit:10;" d="M 125.019531 191.460938 L 130.335938 191.460938 "/>
<path style="fill:none;stroke-width:17.071654;stroke-linecap:butt;stroke-linejoin:round;stroke:rgb(0%,74.901961%,76.862745%);stroke-opacity:1;stroke-miterlimit:10;" d="M 151.574219 191.460938 L 153.605469 191.460938 "/>
<path style="fill:none;stroke-width:17.071654;stroke-linecap:butt;stroke-linejoin:round;stroke:rgb(97.254902%,46.27451%,42.745098%);stroke-opacity:1;stroke-miterlimit:10;" d="M 153.664062 191.460938 L 156.296875 191.460938 "/>
<path style="fill:none;stroke-width:17.071654;stroke-linecap:butt;stroke-linejoin:round;stroke:rgb(97.254902%,46.27451%,42.745098%);stroke-opacity:1;stroke-miterlimit:10;" d="M 156.316406 191.460938 L 158.945312 191.460938 "/>
<path style="fill:none;stroke-width:17.071654;stroke-linecap:butt;stroke-linejoin:round;stroke:rgb(97.254902%,46.27451%,42.745098%);stroke-opacity:1;stroke-miterlimit:10;" d="M 158.960938 191.460938 L 161.613281 191.460938 "/>
<path style="fill:none;stroke-width:17.071654;stroke-linecap:butt;stroke-linejoin:round;stroke:rgb(97.254902%,46.27451%,42.745098%);stroke-opacity:1;stroke-miterlimit:10;" d="M 161.628906 191.460938 L 164.28125 191.460938 "/>
<path style="fill:none;stroke-width:17.071654;stroke-linecap:butt;stroke-linejoin:round;stroke:rgb(97.254902%,46.27451%,42.745098%);stroke-opacity:1;stroke-miterlimit:10;" d="M 164.292969 191.460938 L 166.945312 191.460938 "/>
<path style="fill:none;stroke-width:17.071654;stroke-linecap:butt;stroke-linejoin:round;stroke:rgb(97.254902%,46.27451%,42.745098%);stroke-opacity:1;stroke-miterlimit:10;" d="M 166.960938 191.460938 L 169.640625 191.460938 "/>
<path style="fill:none;stroke-width:17.071654;stroke-linecap:butt;stroke-linejoin:round;stroke:rgb(97.254902%,46.27451%,42.745098%);stroke-opacity:1;stroke-miterlimit:10;" d="M 169.652344 191.460938 L 172.328125 191.460938 "/>
<path style="fill:none;stroke-width:17.071654;stroke-linecap:butt;stroke-linejoin:round;stroke:rgb(97.254902%,46.27451%,42.745098%);stroke-opacity:1;stroke-miterlimit:10;" d="M 172.386719 191.460938 L 175.039062 191.460938 "/>
<path style="fill:none;stroke-width:17.071654;stroke-linecap:butt;stroke-linejoin:round;stroke:rgb(97.254902%,46.27451%,42.745098%);stroke-opacity:1;stroke-miterlimit:10;" d="M 175.78125 191.460938 L 178.503906 191.460938 "/>
<path style="fill:none;stroke-width:17.071654;stroke-linecap:butt;stroke-linejoin:round;stroke:rgb(97.254902%,46.27451%,42.745098%);stroke-opacity:1;stroke-miterlimit:10;" d="M 178.523438 191.460938 L 181.171875 191.460938 "/>
<path style="fill:none;stroke-width:17.071654;stroke-linecap:butt;stroke-linejoin:round;stroke:rgb(97.254902%,46.27451%,42.745098%);stroke-opacity:1;stroke-miterlimit:10;" d="M 181.457031 191.460938 L 184.164062 191.460938 "/>
<path style="fill:none;stroke-width:17.071654;stroke-linecap:butt;stroke-linejoin:round;stroke:rgb(97.254902%,46.27451%,42.745098%);stroke-opacity:1;stroke-miterlimit:10;" d="M 184.179688 191.460938 L 186.808594 191.460938 "/>
<path style="fill:none;stroke-width:17.071654;stroke-linecap:butt;stroke-linejoin:round;stroke:rgb(97.254902%,46.27451%,42.745098%);stroke-opacity:1;stroke-miterlimit:10;" d="M 186.867188 191.460938 L 189.503906 191.460938 "/>
<path style="fill:none;stroke-width:17.071654;stroke-linecap:butt;stroke-linejoin:round;stroke:rgb(97.254902%,46.27451%,42.745098%);stroke-opacity:1;stroke-miterlimit:10;" d="M 189.519531 191.460938 L 192.171875 191.460938 "/>
<path style="fill:none;stroke-width:17.071654;stroke-linecap:butt;stroke-linejoin:round;stroke:rgb(97.254902%,46.27451%,42.745098%);stroke-opacity:1;stroke-miterlimit:10;" d="M 192.234375 191.460938 L 194.839844 191.460938 "/>
<path style="fill:none;stroke-width:17.071654;stroke-linecap:butt;stroke-linejoin:round;stroke:rgb(97.254902%,46.27451%,42.745098%);stroke-opacity:1;stroke-miterlimit:10;" d="M 194.851562 191.460938 L 197.492188 191.460938 "/>
<path style="fill:none;stroke-width:17.071654;stroke-linecap:butt;stroke-linejoin:round;stroke:rgb(97.254902%,46.27451%,42.745098%);stroke-opacity:1;stroke-miterlimit:10;" d="M 197.546875 191.460938 L 200.152344 191.460938 "/>
<path style="fill:none;stroke-width:17.071654;stroke-linecap:butt;stroke-linejoin:round;stroke:rgb(97.254902%,46.27451%,42.745098%);stroke-opacity:1;stroke-miterlimit:10;" d="M 200.164062 191.460938 L 202.816406 191.460938 "/>
<path style="fill:none;stroke-width:17.071654;stroke-linecap:butt;stroke-linejoin:round;stroke:rgb(97.254902%,46.27451%,42.745098%);stroke-opacity:1;stroke-miterlimit:10;" d="M 202.878906 191.460938 L 205.507812 191.460938 "/>
<path style="fill:none;stroke-width:17.071654;stroke-linecap:butt;stroke-linejoin:round;stroke:rgb(97.254902%,46.27451%,42.745098%);stroke-opacity:1;stroke-miterlimit:10;" d="M 207.800781 191.460938 L 210.496094 191.460938 "/>
<path style="fill:none;stroke-width:17.071654;stroke-linecap:butt;stroke-linejoin:round;stroke:rgb(97.254902%,46.27451%,42.745098%);stroke-opacity:1;stroke-miterlimit:10;" d="M 210.511719 191.460938 L 213.167969 191.460938 "/>
<path style="fill:none;stroke-width:17.071654;stroke-linecap:butt;stroke-linejoin:round;stroke:rgb(97.254902%,46.27451%,42.745098%);stroke-opacity:1;stroke-miterlimit:10;" d="M 213.226562 191.460938 L 215.847656 191.460938 "/>
<path style="fill:none;stroke-width:17.071654;stroke-linecap:butt;stroke-linejoin:round;stroke:rgb(97.254902%,46.27451%,42.745098%);stroke-opacity:1;stroke-miterlimit:10;" d="M 216.546875 191.460938 L 219.253906 191.460938 "/>
<path style="fill:none;stroke-width:17.071654;stroke-linecap:butt;stroke-linejoin:round;stroke:rgb(97.254902%,46.27451%,42.745098%);stroke-opacity:1;stroke-miterlimit:10;" d="M 219.269531 191.460938 L 221.921875 191.460938 "/>
<path style="fill:none;stroke-width:17.071654;stroke-linecap:butt;stroke-linejoin:round;stroke:rgb(97.254902%,46.27451%,42.745098%);stroke-opacity:1;stroke-miterlimit:10;" d="M 221.9375 191.460938 L 224.589844 191.460938 "/>
<path style="fill:none;stroke-width:17.071654;stroke-linecap:butt;stroke-linejoin:round;stroke:rgb(97.254902%,46.27451%,42.745098%);stroke-opacity:1;stroke-miterlimit:10;" d="M 224.652344 191.460938 L 227.246094 191.460938 "/>
<path style="fill:none;stroke-width:17.071654;stroke-linecap:butt;stroke-linejoin:round;stroke:rgb(97.254902%,46.27451%,42.745098%);stroke-opacity:1;stroke-miterlimit:10;" d="M 227.261719 191.460938 L 229.910156 191.460938 "/>
<path style="fill:none;stroke-width:17.071654;stroke-linecap:butt;stroke-linejoin:round;stroke:rgb(97.254902%,46.27451%,42.745098%);stroke-opacity:1;stroke-miterlimit:10;" d="M 229.925781 191.460938 L 232.59375 191.460938 "/>
<path style="fill:none;stroke-width:17.071654;stroke-linecap:butt;stroke-linejoin:round;stroke:rgb(97.254902%,46.27451%,42.745098%);stroke-opacity:1;stroke-miterlimit:10;" d="M 234.269531 191.460938 L 236.976562 191.460938 "/>
<path style="fill:none;stroke-width:17.071654;stroke-linecap:butt;stroke-linejoin:round;stroke:rgb(97.254902%,46.27451%,42.745098%);stroke-opacity:1;stroke-miterlimit:10;" d="M 238.511719 191.460938 L 241.210938 191.460938 "/>
<path style="fill:none;stroke-width:17.071654;stroke-linecap:butt;stroke-linejoin:round;stroke:rgb(78.039216%,48.627451%,100%);stroke-opacity:1;stroke-miterlimit:10;" d="M 244.167969 191.460938 L 249.257812 191.460938 "/>
<path style="fill:none;stroke-width:17.071654;stroke-linecap:butt;stroke-linejoin:round;stroke:rgb(97.254902%,46.27451%,42.745098%);stroke-opacity:1;stroke-miterlimit:10;" d="M 249.332031 191.460938 L 252.167969 191.460938 "/>
<path style="fill:none;stroke-width:17.071654;stroke-linecap:butt;stroke-linejoin:round;stroke:rgb(78.039216%,48.627451%,100%);stroke-opacity:1;stroke-miterlimit:10;" d="M 252.183594 191.460938 L 257.117188 191.460938 "/>
<path style="fill:none;stroke-width:17.071654;stroke-linecap:butt;stroke-linejoin:round;stroke:rgb(97.254902%,46.27451%,42.745098%);stroke-opacity:1;stroke-miterlimit:10;" d="M 257.402344 191.460938 L 259.804688 191.460938 "/>
<path style="fill:none;stroke-width:17.071654;stroke-linecap:butt;stroke-linejoin:round;stroke:rgb(97.254902%,46.27451%,42.745098%);stroke-opacity:1;stroke-miterlimit:10;" d="M 259.859375 191.460938 L 262.484375 191.460938 "/>
<path style="fill:none;stroke-width:17.071654;stroke-linecap:butt;stroke-linejoin:round;stroke:rgb(78.039216%,48.627451%,100%);stroke-opacity:1;stroke-miterlimit:10;" d="M 262.5 191.460938 L 267.554688 191.460938 "/>
<path style="fill:none;stroke-width:17.071654;stroke-linecap:butt;stroke-linejoin:round;stroke:rgb(97.254902%,46.27451%,42.745098%);stroke-opacity:1;stroke-miterlimit:10;" d="M 267.710938 191.460938 L 270.25 191.460938 "/>
<path style="fill:none;stroke-width:17.071654;stroke-linecap:butt;stroke-linejoin:round;stroke:rgb(0%,74.901961%,76.862745%);stroke-opacity:1;stroke-miterlimit:10;" d="M 270.265625 191.460938 L 272.203125 191.460938 "/>
<path style="fill:none;stroke-width:17.071654;stroke-linecap:butt;stroke-linejoin:round;stroke:rgb(97.254902%,46.27451%,42.745098%);stroke-opacity:1;stroke-miterlimit:10;" d="M 272.21875 191.460938 L 275.855469 191.460938 "/>
<path style="fill:none;stroke-width:17.071654;stroke-linecap:butt;stroke-linejoin:round;stroke:rgb(97.254902%,46.27451%,42.745098%);stroke-opacity:1;stroke-miterlimit:10;" d="M 278.304688 191.460938 L 281.011719 191.460938 "/>
<path style="fill:none;stroke-width:17.071654;stroke-linecap:butt;stroke-linejoin:round;stroke:rgb(97.254902%,46.27451%,42.745098%);stroke-opacity:1;stroke-miterlimit:10;" d="M 281.027344 191.460938 L 283.683594 191.460938 "/>
<path style="fill:none;stroke-width:17.071654;stroke-linecap:butt;stroke-linejoin:round;stroke:rgb(0%,74.901961%,76.862745%);stroke-opacity:1;stroke-miterlimit:10;" d="M 289.269531 191.460938 L 291.257812 191.460938 "/>
<path style="fill:none;stroke-width:17.071654;stroke-linecap:butt;stroke-linejoin:round;stroke:rgb(0%,74.901961%,76.862745%);stroke-opacity:1;stroke-miterlimit:10;" d="M 300.164062 191.460938 L 302.148438 191.460938 "/>
<path style="fill:none;stroke-width:17.071654;stroke-linecap:butt;stroke-linejoin:round;stroke:rgb(97.254902%,46.27451%,42.745098%);stroke-opacity:1;stroke-miterlimit:10;" d="M 302.203125 191.460938 L 304.824219 191.460938 "/>
<path style="fill:none;stroke-width:17.071654;stroke-linecap:butt;stroke-linejoin:round;stroke:rgb(78.039216%,48.627451%,100%);stroke-opacity:1;stroke-miterlimit:10;" d="M 321.035156 191.460938 L 326.210938 191.460938 "/>
<path style="fill:none;stroke-width:17.071654;stroke-linecap:butt;stroke-linejoin:round;stroke:rgb(78.039216%,48.627451%,100%);stroke-opacity:1;stroke-miterlimit:10;" d="M 326.296875 191.460938 L 331.4375 191.460938 "/>
<path style="fill:none;stroke-width:17.071654;stroke-linecap:butt;stroke-linejoin:round;stroke:rgb(0%,74.901961%,76.862745%);stroke-opacity:1;stroke-miterlimit:10;" d="M 331.898438 191.460938 L 333.410156 191.460938 "/>
<path style="fill:none;stroke-width:17.071654;stroke-linecap:butt;stroke-linejoin:round;stroke:rgb(97.254902%,46.27451%,42.745098%);stroke-opacity:1;stroke-miterlimit:10;" d="M 334.652344 191.460938 L 337.359375 191.460938 "/>
<path style="fill:none;stroke-width:17.071654;stroke-linecap:butt;stroke-linejoin:round;stroke:rgb(0%,74.901961%,76.862745%);stroke-opacity:1;stroke-miterlimit:10;" d="M 356.5625 191.460938 L 358.546875 191.460938 "/>
<path style="fill:none;stroke-width:17.071654;stroke-linecap:butt;stroke-linejoin:round;stroke:rgb(78.039216%,48.627451%,100%);stroke-opacity:1;stroke-miterlimit:10;" d="M 90.226562 233.527344 L 132.675781 233.527344 "/>
<path style="fill:none;stroke-width:17.071654;stroke-linecap:butt;stroke-linejoin:round;stroke:rgb(78.039216%,48.627451%,100%);stroke-opacity:1;stroke-miterlimit:10;" d="M 90.15625 275.597656 L 131.789062 275.597656 "/>
<path style="fill:none;stroke-width:17.071654;stroke-linecap:butt;stroke-linejoin:round;stroke:rgb(78.039216%,48.627451%,100%);stroke-opacity:1;stroke-miterlimit:10;" d="M 90.136719 317.664062 L 132.414062 317.664062 "/>
<path style="fill:none;stroke-width:17.071654;stroke-linecap:butt;stroke-linejoin:round;stroke:rgb(78.039216%,48.627451%,100%);stroke-opacity:1;stroke-miterlimit:10;" d="M 90.070312 359.730469 L 132.414062 359.730469 "/>
<path style="fill:none;stroke-width:17.071654;stroke-linecap:butt;stroke-linejoin:round;stroke:rgb(78.039216%,48.627451%,100%);stroke-opacity:1;stroke-miterlimit:10;" d="M 90.039062 401.800781 L 132.453125 401.800781 "/>
<path style="fill:none;stroke-width:17.071654;stroke-linecap:butt;stroke-linejoin:round;stroke:rgb(48.627451%,68.235294%,0%);stroke-opacity:1;stroke-miterlimit:10;" d="M 154.941406 401.800781 L 171.621094 401.800781 "/>
<path style="fill:none;stroke-width:17.071654;stroke-linecap:butt;stroke-linejoin:round;stroke:rgb(48.627451%,68.235294%,0%);stroke-opacity:1;stroke-miterlimit:10;" d="M 188.71875 401.800781 L 205.5625 401.800781 "/>
<path style="fill:none;stroke-width:17.071654;stroke-linecap:butt;stroke-linejoin:round;stroke:rgb(48.627451%,68.235294%,0%);stroke-opacity:1;stroke-miterlimit:10;" d="M 72.488281 443.867188 L 89.242188 443.867188 "/>
<path style="fill:none;stroke-width:17.071654;stroke-linecap:butt;stroke-linejoin:round;stroke:rgb(48.627451%,68.235294%,0%);stroke-opacity:1;stroke-miterlimit:10;" d="M 106.121094 443.867188 L 123.617188 443.867188 "/>
<path style="fill:none;stroke-width:17.071654;stroke-linecap:butt;stroke-linejoin:round;stroke:rgb(0%,74.901961%,76.862745%);stroke-opacity:1;stroke-miterlimit:10;" d="M 133.058594 443.867188 L 176.398438 443.867188 "/>
<path style="fill:none;stroke-width:17.071654;stroke-linecap:butt;stroke-linejoin:round;stroke:rgb(48.627451%,68.235294%,0%);stroke-opacity:1;stroke-miterlimit:10;" d="M 226.175781 443.867188 L 242.714844 443.867188 "/>
<path style="fill:none;stroke-width:17.071654;stroke-linecap:butt;stroke-linejoin:round;stroke:rgb(48.627451%,68.235294%,0%);stroke-opacity:1;stroke-miterlimit:10;" d="M 264.226562 443.867188 L 281.300781 443.867188 "/>
<path style="fill:none;stroke-width:17.071654;stroke-linecap:butt;stroke-linejoin:round;stroke:rgb(48.627451%,68.235294%,0%);stroke-opacity:1;stroke-miterlimit:10;" d="M 303.375 443.867188 L 319.597656 443.867188 "/>
<path style="fill:none;stroke-width:17.071654;stroke-linecap:butt;stroke-linejoin:round;stroke:rgb(48.627451%,68.235294%,0%);stroke-opacity:1;stroke-miterlimit:10;" d="M 331.28125 443.867188 L 348.847656 443.867188 "/>
<path style="fill:none;stroke-width:17.071654;stroke-linecap:butt;stroke-linejoin:round;stroke:rgb(48.627451%,68.235294%,0%);stroke-opacity:1;stroke-miterlimit:10;" d="M 360.324219 443.867188 L 376.824219 443.867188 "/>
<path style="fill:none;stroke-width:17.071654;stroke-linecap:butt;stroke-linejoin:round;stroke:rgb(48.627451%,68.235294%,0%);stroke-opacity:1;stroke-miterlimit:10;" d="M 388.117188 443.867188 L 404.410156 443.867188 "/>
<g clip-path="url(#clip21)" clip-rule="nonzero">
<path style="fill:none;stroke-width:1.066978;stroke-linecap:round;stroke-linejoin:round;stroke:rgb(20%,20%,20%);stroke-opacity:1;stroke-miterlimit:10;" d="M 55.890625 469.109375 L 421.007812 469.109375 L 421.007812 40.011719 L 55.890625 40.011719 Z M 55.890625 469.109375 "/>
</g>
<g clip-path="url(#clip22)" clip-rule="nonzero">
<path style="fill-rule:nonzero;fill:rgb(85.098039%,85.098039%,85.098039%);fill-opacity:1;stroke-width:1.066978;stroke-linecap:round;stroke-linejoin:round;stroke:rgb(20%,20%,20%);stroke-opacity:1;stroke-miterlimit:10;" d="M 55.890625 40.015625 L 421.007812 40.015625 L 421.007812 22.058594 L 55.890625 22.058594 Z M 55.890625 40.015625 "/>
</g>
<g style="fill:rgb(10.196078%,10.196078%,10.196078%);fill-opacity:1;">
  <use xlink:href="#glyph0-1" x="204.949219" y="33.637695"/>
  <use xlink:href="#glyph0-2" x="212.277344" y="33.637695"/>
  <use xlink:href="#glyph0-3" x="217.167969" y="33.637695"/>
  <use xlink:href="#glyph0-4" x="221.522461" y="33.637695"/>
  <use xlink:href="#glyph0-5" x="223.835938" y="33.637695"/>
  <use xlink:href="#glyph0-6" x="228.726562" y="33.637695"/>
  <use xlink:href="#glyph0-7" x="231.65625" y="33.637695"/>
  <use xlink:href="#glyph0-5" x="234.101562" y="33.637695"/>
  <use xlink:href="#glyph0-8" x="238.772461" y="33.637695"/>
  <use xlink:href="#glyph0-5" x="242.907227" y="33.637695"/>
  <use xlink:href="#glyph0-9" x="247.797852" y="33.637695"/>
  <use xlink:href="#glyph0-10" x="252.196289" y="33.637695"/>
  <use xlink:href="#glyph0-4" x="257.086914" y="33.637695"/>
  <use xlink:href="#glyph0-11" x="259.532227" y="33.637695"/>
  <use xlink:href="#glyph0-12" x="261.485352" y="33.637695"/>
  <use xlink:href="#glyph0-13" x="266.375977" y="33.637695"/>
</g>
<path style="fill:none;stroke-width:1.066978;stroke-linecap:butt;stroke-linejoin:round;stroke:rgb(20%,20%,20%);stroke-opacity:1;stroke-miterlimit:10;" d="M 71.652344 471.847656 L 71.652344 469.109375 "/>
<path style="fill:none;stroke-width:1.066978;stroke-linecap:butt;stroke-linejoin:round;stroke:rgb(20%,20%,20%);stroke-opacity:1;stroke-miterlimit:10;" d="M 150.773438 471.847656 L 150.773438 469.109375 "/>
<path style="fill:none;stroke-width:1.066978;stroke-linecap:butt;stroke-linejoin:round;stroke:rgb(20%,20%,20%);stroke-opacity:1;stroke-miterlimit:10;" d="M 229.898438 471.847656 L 229.898438 469.109375 "/>
<path style="fill:none;stroke-width:1.066978;stroke-linecap:butt;stroke-linejoin:round;stroke:rgb(20%,20%,20%);stroke-opacity:1;stroke-miterlimit:10;" d="M 309.019531 471.847656 L 309.019531 469.109375 "/>
<path style="fill:none;stroke-width:1.066978;stroke-linecap:butt;stroke-linejoin:round;stroke:rgb(20%,20%,20%);stroke-opacity:1;stroke-miterlimit:10;" d="M 388.140625 471.847656 L 388.140625 469.109375 "/>
<g style="fill:rgb(30.196078%,30.196078%,30.196078%);fill-opacity:1;">
  <use xlink:href="#glyph0-14" x="61.652344" y="480.145508"/>
  <use xlink:href="#glyph0-14" x="66.542969" y="480.145508"/>
  <use xlink:href="#glyph0-15" x="71.433594" y="480.145508"/>
  <use xlink:href="#glyph0-16" x="76.324219" y="480.145508"/>
</g>
<g style="fill:rgb(30.196078%,30.196078%,30.196078%);fill-opacity:1;">
  <use xlink:href="#glyph0-14" x="140.773438" y="480.145508"/>
  <use xlink:href="#glyph0-17" x="145.664062" y="480.145508"/>
  <use xlink:href="#glyph0-16" x="150.554688" y="480.145508"/>
  <use xlink:href="#glyph0-16" x="155.445312" y="480.145508"/>
</g>
<g style="fill:rgb(30.196078%,30.196078%,30.196078%);fill-opacity:1;">
  <use xlink:href="#glyph0-14" x="219.898438" y="480.145508"/>
  <use xlink:href="#glyph0-17" x="224.789062" y="480.145508"/>
  <use xlink:href="#glyph0-15" x="229.679688" y="480.145508"/>
  <use xlink:href="#glyph0-16" x="234.570312" y="480.145508"/>
</g>
<g style="fill:rgb(30.196078%,30.196078%,30.196078%);fill-opacity:1;">
  <use xlink:href="#glyph0-14" x="299.019531" y="480.145508"/>
  <use xlink:href="#glyph0-15" x="303.910156" y="480.145508"/>
  <use xlink:href="#glyph0-16" x="308.800781" y="480.145508"/>
  <use xlink:href="#glyph0-16" x="313.691406" y="480.145508"/>
</g>
<g style="fill:rgb(30.196078%,30.196078%,30.196078%);fill-opacity:1;">
  <use xlink:href="#glyph0-14" x="378.140625" y="480.145508"/>
  <use xlink:href="#glyph0-15" x="383.03125" y="480.145508"/>
  <use xlink:href="#glyph0-15" x="387.921875" y="480.145508"/>
  <use xlink:href="#glyph0-16" x="392.8125" y="480.145508"/>
</g>
<g style="fill:rgb(30.196078%,30.196078%,30.196078%);fill-opacity:1;">
  <use xlink:href="#glyph0-18" x="26.957031" y="446.469727"/>
  <use xlink:href="#glyph0-19" x="33.308594" y="446.469727"/>
  <use xlink:href="#glyph0-20" x="39.175781" y="446.469727"/>
  <use xlink:href="#glyph0-16" x="45.527344" y="446.469727"/>
</g>
<g style="fill:rgb(30.196078%,30.196078%,30.196078%);fill-opacity:1;">
  <use xlink:href="#glyph0-18" x="26.957031" y="404.40332"/>
  <use xlink:href="#glyph0-19" x="33.308594" y="404.40332"/>
  <use xlink:href="#glyph0-20" x="39.175781" y="404.40332"/>
  <use xlink:href="#glyph0-21" x="45.527344" y="404.40332"/>
</g>
<g style="fill:rgb(30.196078%,30.196078%,30.196078%);fill-opacity:1;">
  <use xlink:href="#glyph0-18" x="26.957031" y="362.333008"/>
  <use xlink:href="#glyph0-19" x="33.308594" y="362.333008"/>
  <use xlink:href="#glyph0-20" x="39.175781" y="362.333008"/>
  <use xlink:href="#glyph0-22" x="45.527344" y="362.333008"/>
</g>
<g style="fill:rgb(30.196078%,30.196078%,30.196078%);fill-opacity:1;">
  <use xlink:href="#glyph0-18" x="26.957031" y="320.266602"/>
  <use xlink:href="#glyph0-19" x="33.308594" y="320.266602"/>
  <use xlink:href="#glyph0-20" x="39.175781" y="320.266602"/>
  <use xlink:href="#glyph0-14" x="45.527344" y="320.266602"/>
</g>
<g style="fill:rgb(30.196078%,30.196078%,30.196078%);fill-opacity:1;">
  <use xlink:href="#glyph0-18" x="26.957031" y="278.200195"/>
  <use xlink:href="#glyph0-19" x="33.308594" y="278.200195"/>
  <use xlink:href="#glyph0-20" x="39.175781" y="278.200195"/>
  <use xlink:href="#glyph0-17" x="45.527344" y="278.200195"/>
</g>
<g style="fill:rgb(30.196078%,30.196078%,30.196078%);fill-opacity:1;">
  <use xlink:href="#glyph0-18" x="26.957031" y="236.129883"/>
  <use xlink:href="#glyph0-19" x="33.308594" y="236.129883"/>
  <use xlink:href="#glyph0-20" x="39.175781" y="236.129883"/>
  <use xlink:href="#glyph0-15" x="45.527344" y="236.129883"/>
</g>
<g style="fill:rgb(30.196078%,30.196078%,30.196078%);fill-opacity:1;">
  <use xlink:href="#glyph0-18" x="20.957031" y="194.063477"/>
  <use xlink:href="#glyph0-20" x="27.308594" y="194.063477"/>
  <use xlink:href="#glyph0-23" x="33.660156" y="194.063477"/>
  <use xlink:href="#glyph0-24" x="39.660156" y="194.063477"/>
  <use xlink:href="#glyph0-16" x="45.527344" y="194.063477"/>
</g>
<g style="fill:rgb(30.196078%,30.196078%,30.196078%);fill-opacity:1;">
  <use xlink:href="#glyph0-18" x="20.957031" y="151.993164"/>
  <use xlink:href="#glyph0-20" x="27.308594" y="151.993164"/>
  <use xlink:href="#glyph0-23" x="33.660156" y="151.993164"/>
  <use xlink:href="#glyph0-24" x="39.660156" y="151.993164"/>
  <use xlink:href="#glyph0-21" x="45.527344" y="151.993164"/>
</g>
<g style="fill:rgb(30.196078%,30.196078%,30.196078%);fill-opacity:1;">
  <use xlink:href="#glyph0-18" x="20.957031" y="109.926758"/>
  <use xlink:href="#glyph0-20" x="27.308594" y="109.926758"/>
  <use xlink:href="#glyph0-23" x="33.660156" y="109.926758"/>
  <use xlink:href="#glyph0-24" x="39.660156" y="109.926758"/>
  <use xlink:href="#glyph0-22" x="45.527344" y="109.926758"/>
</g>
<g style="fill:rgb(30.196078%,30.196078%,30.196078%);fill-opacity:1;">
  <use xlink:href="#glyph0-18" x="20.957031" y="67.856445"/>
  <use xlink:href="#glyph0-20" x="27.308594" y="67.856445"/>
  <use xlink:href="#glyph0-23" x="33.660156" y="67.856445"/>
  <use xlink:href="#glyph0-24" x="39.660156" y="67.856445"/>
  <use xlink:href="#glyph0-14" x="45.527344" y="67.856445"/>
</g>
<path style="fill:none;stroke-width:1.066978;stroke-linecap:butt;stroke-linejoin:round;stroke:rgb(20%,20%,20%);stroke-opacity:1;stroke-miterlimit:10;" d="M 53.152344 443.867188 L 55.890625 443.867188 "/>
<path style="fill:none;stroke-width:1.066978;stroke-linecap:butt;stroke-linejoin:round;stroke:rgb(20%,20%,20%);stroke-opacity:1;stroke-miterlimit:10;" d="M 53.152344 401.800781 L 55.890625 401.800781 "/>
<path style="fill:none;stroke-width:1.066978;stroke-linecap:butt;stroke-linejoin:round;stroke:rgb(20%,20%,20%);stroke-opacity:1;stroke-miterlimit:10;" d="M 53.152344 359.730469 L 55.890625 359.730469 "/>
<path style="fill:none;stroke-width:1.066978;stroke-linecap:butt;stroke-linejoin:round;stroke:rgb(20%,20%,20%);stroke-opacity:1;stroke-miterlimit:10;" d="M 53.152344 317.664062 L 55.890625 317.664062 "/>
<path style="fill:none;stroke-width:1.066978;stroke-linecap:butt;stroke-linejoin:round;stroke:rgb(20%,20%,20%);stroke-opacity:1;stroke-miterlimit:10;" d="M 53.152344 275.597656 L 55.890625 275.597656 "/>
<path style="fill:none;stroke-width:1.066978;stroke-linecap:butt;stroke-linejoin:round;stroke:rgb(20%,20%,20%);stroke-opacity:1;stroke-miterlimit:10;" d="M 53.152344 233.527344 L 55.890625 233.527344 "/>
<path style="fill:none;stroke-width:1.066978;stroke-linecap:butt;stroke-linejoin:round;stroke:rgb(20%,20%,20%);stroke-opacity:1;stroke-miterlimit:10;" d="M 53.152344 191.460938 L 55.890625 191.460938 "/>
<path style="fill:none;stroke-width:1.066978;stroke-linecap:butt;stroke-linejoin:round;stroke:rgb(20%,20%,20%);stroke-opacity:1;stroke-miterlimit:10;" d="M 53.152344 149.390625 L 55.890625 149.390625 "/>
<path style="fill:none;stroke-width:1.066978;stroke-linecap:butt;stroke-linejoin:round;stroke:rgb(20%,20%,20%);stroke-opacity:1;stroke-miterlimit:10;" d="M 53.152344 107.324219 L 55.890625 107.324219 "/>
<path style="fill:none;stroke-width:1.066978;stroke-linecap:butt;stroke-linejoin:round;stroke:rgb(20%,20%,20%);stroke-opacity:1;stroke-miterlimit:10;" d="M 53.152344 65.253906 L 55.890625 65.253906 "/>
<g style="fill:rgb(0%,0%,0%);fill-opacity:1;">
  <use xlink:href="#glyph1-1" x="213.949219" y="495.147461"/>
  <use xlink:href="#glyph1-2" x="220.669922" y="495.147461"/>
  <use xlink:href="#glyph1-3" x="223.112305" y="495.147461"/>
  <use xlink:href="#glyph1-4" x="232.275391" y="495.147461"/>
  <use xlink:href="#glyph1-5" x="238.391602" y="495.147461"/>
  <use xlink:href="#glyph1-6" x="241.449219" y="495.147461"/>
  <use xlink:href="#glyph1-3" x="244.506836" y="495.147461"/>
  <use xlink:href="#glyph1-7" x="253.669922" y="495.147461"/>
  <use xlink:href="#glyph1-8" x="259.169922" y="495.147461"/>
</g>
<g style="fill:rgb(0%,0%,0%);fill-opacity:1;">
  <use xlink:href="#glyph2-1" x="14.108398" y="278.0625"/>
  <use xlink:href="#glyph2-2" x="14.108398" y="270.230469"/>
  <use xlink:href="#glyph2-3" x="14.108398" y="264.114258"/>
  <use xlink:href="#glyph2-4" x="14.108398" y="258.614258"/>
  <use xlink:href="#glyph2-5" x="14.108398" y="252.498047"/>
  <use xlink:href="#glyph2-6" x="14.108398" y="246.381836"/>
  <use xlink:href="#glyph2-7" x="14.108398" y="242.773438"/>
  <use xlink:href="#glyph2-2" x="14.108398" y="237.273438"/>
</g>
<path style=" stroke:none;fill-rule:nonzero;fill:rgb(100%,100%,100%);fill-opacity:1;" d="M 432.34375 312.246094 L 498.519531 312.246094 L 498.519531 196.878906 L 432.34375 196.878906 Z M 432.34375 312.246094 "/>
<g style="fill:rgb(0%,0%,0%);fill-opacity:1;">
  <use xlink:href="#glyph1-9" x="438.015625" y="211.174805"/>
  <use xlink:href="#glyph1-10" x="445.297852" y="211.174805"/>
  <use xlink:href="#glyph1-11" x="448.355469" y="211.174805"/>
  <use xlink:href="#glyph1-10" x="454.47168" y="211.174805"/>
  <use xlink:href="#glyph1-4" x="457.364258" y="211.174805"/>
</g>
<path style=" stroke:none;fill-rule:nonzero;fill:rgb(100%,100%,100%);fill-opacity:1;" d="M 438.015625 238.542969 L 460.691406 238.542969 L 460.691406 215.867188 L 438.015625 215.867188 Z M 438.015625 238.542969 "/>
<path style="fill:none;stroke-width:17.071654;stroke-linecap:butt;stroke-linejoin:round;stroke:rgb(97.254902%,46.27451%,42.745098%);stroke-opacity:1;stroke-miterlimit:10;" d="M 440.28125 227.207031 L 458.421875 227.207031 "/>
<path style=" stroke:none;fill-rule:nonzero;fill:rgb(100%,100%,100%);fill-opacity:1;" d="M 438.015625 261.222656 L 460.691406 261.222656 L 460.691406 238.546875 L 438.015625 238.546875 Z M 438.015625 261.222656 "/>
<path style="fill:none;stroke-width:17.071654;stroke-linecap:butt;stroke-linejoin:round;stroke:rgb(48.627451%,68.235294%,0%);stroke-opacity:1;stroke-miterlimit:10;" d="M 440.28125 249.882812 L 458.421875 249.882812 "/>
<path style=" stroke:none;fill-rule:nonzero;fill:rgb(100%,100%,100%);fill-opacity:1;" d="M 438.015625 283.898438 L 460.691406 283.898438 L 460.691406 261.222656 L 438.015625 261.222656 Z M 438.015625 283.898438 "/>
<path style="fill:none;stroke-width:17.071654;stroke-linecap:butt;stroke-linejoin:round;stroke:rgb(0%,74.901961%,76.862745%);stroke-opacity:1;stroke-miterlimit:10;" d="M 440.28125 272.558594 L 458.421875 272.558594 "/>
<path style=" stroke:none;fill-rule:nonzero;fill:rgb(100%,100%,100%);fill-opacity:1;" d="M 438.015625 306.574219 L 460.691406 306.574219 L 460.691406 283.898438 L 438.015625 283.898438 Z M 438.015625 306.574219 "/>
<path style="fill:none;stroke-width:17.071654;stroke-linecap:butt;stroke-linejoin:round;stroke:rgb(78.039216%,48.627451%,100%);stroke-opacity:1;stroke-miterlimit:10;" d="M 440.28125 295.238281 L 458.421875 295.238281 "/>
<g style="fill:rgb(0%,0%,0%);fill-opacity:1;">
  <use xlink:href="#glyph0-25" x="462.851562" y="229.80957"/>
  <use xlink:href="#glyph0-26" x="467.742188" y="229.80957"/>
  <use xlink:href="#glyph0-5" x="472.632812" y="229.80957"/>
  <use xlink:href="#glyph0-1" x="477.523438" y="229.80957"/>
  <use xlink:href="#glyph0-1" x="484.851562" y="229.80957"/>
</g>
<g style="fill:rgb(0%,0%,0%);fill-opacity:1;">
  <use xlink:href="#glyph0-25" x="462.851562" y="252.485352"/>
  <use xlink:href="#glyph0-27" x="467.742188" y="252.485352"/>
  <use xlink:href="#glyph0-12" x="472.632812" y="252.485352"/>
  <use xlink:href="#glyph0-4" x="477.435547" y="252.485352"/>
  <use xlink:href="#glyph0-6" x="479.880859" y="252.485352"/>
  <use xlink:href="#glyph0-28" x="483.030273" y="252.485352"/>
</g>
<g style="fill:rgb(0%,0%,0%);fill-opacity:1;">
  <use xlink:href="#glyph0-25" x="462.851562" y="275.161133"/>
  <use xlink:href="#glyph0-3" x="467.742188" y="275.161133"/>
  <use xlink:href="#glyph0-29" x="472.140625" y="275.161133"/>
  <use xlink:href="#glyph0-6" x="476.539062" y="275.161133"/>
  <use xlink:href="#glyph0-30" x="479.512695" y="275.161133"/>
</g>
<g style="fill:rgb(0%,0%,0%);fill-opacity:1;">
  <use xlink:href="#glyph0-25" x="462.851562" y="297.84082"/>
  <use xlink:href="#glyph0-4" x="467.742188" y="297.84082"/>
  <use xlink:href="#glyph0-6" x="470.1875" y="297.84082"/>
  <use xlink:href="#glyph0-3" x="473.161133" y="297.84082"/>
  <use xlink:href="#glyph0-1" x="477.55957" y="297.84082"/>
</g>
</g>
</svg>
